-------------------------------------------------------------------------------
Test set: org.apache.hadoop.hdfs.TestDFSUpgradeFromImage
-------------------------------------------------------------------------------
Tests run: 7, Failures: 0, Errors: 0, Skipped: 0, Time elapsed: 624.731 sec - in org.apache.hadoop.hdfs.TestDFSUpgradeFromImage
