<?xml version="1.0" encoding="UTF-8"?>
<testsuite name="org.apache.hadoop.hdfs.TestWriteBlockGetsBlockLengthHint" time="19.941" tests="1" errors="1" skipped="0" failures="0">
  <properties>
    <property name="java.runtime.name" value="OpenJDK Runtime Environment"/>
    <property name="sun.boot.library.path" value="/usr/lib/jvm/java-6-openjdk/jre/lib/amd64"/>
    <property name="java.vm.version" value="16.0-b13"/>
    <property name="java.vm.vendor" value="Sun Microsystems Inc."/>
    <property name="java.vendor.url" value="http://java.sun.com/"/>
    <property name="path.separator" value=":"/>
    <property name="guice.disable.misplaced.annotation.check" value="true"/>
    <property name="java.vm.name" value="OpenJDK 64-Bit Server VM"/>
    <property name="file.encoding.pkg" value="sun.io"/>
    <property name="user.country" value="US"/>
    <property name="sun.java.launcher" value="SUN_STANDARD"/>
    <property name="sun.os.patch.level" value="unknown"/>
    <property name="java.vm.specification.name" value="Java Virtual Machine Specification"/>
    <property name="user.dir" value="/mnt/common/ahaider/hadoop-2.6.0-src/hadoop-hdfs-project"/>
    <property name="java.runtime.version" value="1.6.0_18-b18"/>
    <property name="java.awt.graphicsenv" value="sun.awt.X11GraphicsEnvironment"/>
    <property name="java.endorsed.dirs" value="/usr/lib/jvm/java-6-openjdk/jre/lib/endorsed"/>
    <property name="os.arch" value="amd64"/>
    <property name="java.io.tmpdir" value="/tmp"/>
    <property name="line.separator" value="&#10;"/>
    <property name="java.vm.specification.vendor" value="Sun Microsystems Inc."/>
    <property name="os.name" value="Linux"/>
    <property name="classworlds.conf" value="/mnt/common/ahaider/apache-maven-3.2.5/bin/m2.conf"/>
    <property name="sun.jnu.encoding" value="UTF-8"/>
    <property name="java.library.path" value="/usr/lib/jvm/java-6-openjdk/jre/lib/amd64/server:/usr/lib/jvm/java-6-openjdk/jre/lib/amd64:/usr/lib/jvm/java-6-openjdk/jre/../lib/amd64:/usr/java/packages/lib/amd64:/usr/lib/jni:/lib:/usr/lib"/>
    <property name="java.specification.name" value="Java Platform API Specification"/>
    <property name="java.class.version" value="50.0"/>
    <property name="sun.management.compiler" value="HotSpot 64-Bit Server Compiler"/>
    <property name="os.version" value="2.6.28.10"/>
    <property name="user.home" value="/mnt/common/ahaider"/>
    <property name="user.timezone" value="America/Chicago"/>
    <property name="java.awt.printerjob" value="sun.print.PSPrinterJob"/>
    <property name="file.encoding" value="UTF-8"/>
    <property name="java.specification.version" value="1.6"/>
    <property name="user.name" value="ahaider"/>
    <property name="java.class.path" value="/mnt/common/ahaider/apache-maven-3.2.5/boot/plexus-classworlds-2.5.2.jar"/>
    <property name="java.vm.specification.version" value="1.0"/>
    <property name="sun.arch.data.model" value="64"/>
    <property name="java.home" value="/usr/lib/jvm/java-6-openjdk/jre"/>
    <property name="java.specification.vendor" value="Sun Microsystems Inc."/>
    <property name="user.language" value="en"/>
    <property name="java.vm.info" value="mixed mode"/>
    <property name="java.version" value="1.6.0_18"/>
    <property name="java.ext.dirs" value="/usr/lib/jvm/java-6-openjdk/jre/lib/ext:/usr/java/packages/lib/ext"/>
    <property name="securerandom.source" value="file:/dev/./urandom"/>
    <property name="sun.boot.class.path" value="/usr/lib/jvm/java-6-openjdk/jre/lib/resources.jar:/usr/lib/jvm/java-6-openjdk/jre/lib/rt.jar:/usr/lib/jvm/java-6-openjdk/jre/lib/sunrsasign.jar:/usr/lib/jvm/java-6-openjdk/jre/lib/jsse.jar:/usr/lib/jvm/java-6-openjdk/jre/lib/jce.jar:/usr/lib/jvm/java-6-openjdk/jre/lib/charsets.jar:/usr/lib/jvm/java-6-openjdk/jre/lib/rhino.jar:/usr/lib/jvm/java-6-openjdk/jre/classes"/>
    <property name="java.vendor" value="Sun Microsystems Inc."/>
    <property name="maven.home" value="/mnt/common/ahaider/apache-maven-3.2.5"/>
    <property name="file.separator" value="/"/>
    <property name="java.vendor.url.bug" value="http://java.sun.com/cgi-bin/bugreport.cgi"/>
    <property name="sun.cpu.endian" value="little"/>
    <property name="sun.io.unicode.encoding" value="UnicodeLittle"/>
    <property name="sun.cpu.isalist" value=""/>
  </properties>
  <testcase name="blockLengthHintIsPropagated" classname="org.apache.hadoop.hdfs.TestWriteBlockGetsBlockLengthHint" time="19.941">
    <error message="All datanodes 127.0.0.1:43446 are bad. Aborting..." type="java.io.IOException">java.io.IOException: All datanodes 127.0.0.1:43446 are bad. Aborting...
	at org.apache.hadoop.hdfs.DFSOutputStream$DataStreamer.setupPipelineForAppendOrRecovery(DFSOutputStream.java:1206)
	at org.apache.hadoop.hdfs.DFSOutputStream$DataStreamer.processDatanodeError(DFSOutputStream.java:1004)
	at org.apache.hadoop.hdfs.DFSOutputStream$DataStreamer.run(DFSOutputStream.java:548)
</error>
    <system-out><![CDATA[2015-03-06 15:52:45,384 INFO  hdfs.MiniDFSCluster (MiniDFSCluster.java:<init>(442)) - starting cluster: numNameNodes=1, numDataNodes=1
2015-03-06 15:52:46,568 WARN  util.NativeCodeLoader (NativeCodeLoader.java:<clinit>(62)) - Unable to load native-hadoop library for your platform... using builtin-java classes where applicable
Formatting using clusterid: testClusterID
2015-03-06 15:52:46,631 INFO  namenode.FSNamesystem (FSNamesystem.java:<init>(774)) - No KeyProvider found.
2015-03-06 15:52:46,659 INFO  namenode.FSNamesystem (FSNamesystem.java:<init>(786)) - fsLock is fair:true
2015-03-06 15:52:46,708 INFO  Configuration.deprecation (Configuration.java:warnOnceIfDeprecated(1049)) - hadoop.configured.node.mapping is deprecated. Instead, use net.topology.configured.node.mapping
2015-03-06 15:52:46,708 INFO  blockmanagement.DatanodeManager (DatanodeManager.java:<init>(232)) - dfs.block.invalidate.limit=1000
2015-03-06 15:52:46,708 INFO  blockmanagement.DatanodeManager (DatanodeManager.java:<init>(238)) - dfs.namenode.datanode.registration.ip-hostname-check=true
2015-03-06 15:52:46,710 INFO  blockmanagement.BlockManager (InvalidateBlocks.java:printBlockDeletionTime(71)) - dfs.namenode.startup.delay.block.deletion.sec is set to 000:00:00:00.000
2015-03-06 15:52:46,718 INFO  blockmanagement.BlockManager (InvalidateBlocks.java:printBlockDeletionTime(76)) - The block deletion will start around 2015 Mar 06 15:52:46
2015-03-06 15:52:46,721 INFO  util.GSet (LightWeightGSet.java:computeCapacity(354)) - Computing capacity for map BlocksMap
2015-03-06 15:52:46,721 INFO  util.GSet (LightWeightGSet.java:computeCapacity(355)) - VM type       = 64-bit
2015-03-06 15:52:46,724 INFO  util.GSet (LightWeightGSet.java:computeCapacity(356)) - 2.0% max memory 910.3 MB = 18.2 MB
2015-03-06 15:52:46,724 INFO  util.GSet (LightWeightGSet.java:computeCapacity(361)) - capacity      = 2^21 = 2097152 entries
2015-03-06 15:52:46,760 INFO  blockmanagement.BlockManager (BlockManager.java:createBlockTokenSecretManager(364)) - dfs.block.access.token.enable=false
2015-03-06 15:52:46,761 INFO  blockmanagement.BlockManager (BlockManager.java:<init>(349)) - defaultReplication         = 1
2015-03-06 15:52:46,761 INFO  blockmanagement.BlockManager (BlockManager.java:<init>(350)) - maxReplication             = 512
2015-03-06 15:52:46,764 INFO  blockmanagement.BlockManager (BlockManager.java:<init>(351)) - minReplication             = 1
2015-03-06 15:52:46,764 INFO  blockmanagement.BlockManager (BlockManager.java:<init>(352)) - maxReplicationStreams      = 2
2015-03-06 15:52:46,764 INFO  blockmanagement.BlockManager (BlockManager.java:<init>(353)) - shouldCheckForEnoughRacks  = false
2015-03-06 15:52:46,764 INFO  blockmanagement.BlockManager (BlockManager.java:<init>(354)) - replicationRecheckInterval = 3000
2015-03-06 15:52:46,765 INFO  blockmanagement.BlockManager (BlockManager.java:<init>(355)) - encryptDataTransfer        = false
2015-03-06 15:52:46,765 INFO  blockmanagement.BlockManager (BlockManager.java:<init>(356)) - maxNumBlocksToLog          = 1000
2015-03-06 15:52:46,772 INFO  namenode.FSNamesystem (FSNamesystem.java:<init>(809)) - fsOwner             = ahaider (auth:SIMPLE)
2015-03-06 15:52:46,772 INFO  namenode.FSNamesystem (FSNamesystem.java:<init>(810)) - supergroup          = supergroup
2015-03-06 15:52:46,773 INFO  namenode.FSNamesystem (FSNamesystem.java:<init>(811)) - isPermissionEnabled = true
2015-03-06 15:52:46,773 INFO  namenode.FSNamesystem (FSNamesystem.java:<init>(822)) - HA Enabled: false
2015-03-06 15:52:46,776 INFO  namenode.FSNamesystem (FSNamesystem.java:<init>(859)) - Append Enabled: true
2015-03-06 15:52:46,843 INFO  util.GSet (LightWeightGSet.java:computeCapacity(354)) - Computing capacity for map INodeMap
2015-03-06 15:52:46,844 INFO  util.GSet (LightWeightGSet.java:computeCapacity(355)) - VM type       = 64-bit
2015-03-06 15:52:46,844 INFO  util.GSet (LightWeightGSet.java:computeCapacity(356)) - 1.0% max memory 910.3 MB = 9.1 MB
2015-03-06 15:52:46,845 INFO  util.GSet (LightWeightGSet.java:computeCapacity(361)) - capacity      = 2^20 = 1048576 entries
2015-03-06 15:52:46,852 INFO  namenode.NameNode (FSDirectory.java:<init>(234)) - Caching file names occuring more than 10 times
2015-03-06 15:52:46,863 INFO  util.GSet (LightWeightGSet.java:computeCapacity(354)) - Computing capacity for map cachedBlocks
2015-03-06 15:52:46,863 INFO  util.GSet (LightWeightGSet.java:computeCapacity(355)) - VM type       = 64-bit
2015-03-06 15:52:46,864 INFO  util.GSet (LightWeightGSet.java:computeCapacity(356)) - 0.25% max memory 910.3 MB = 2.3 MB
2015-03-06 15:52:46,864 INFO  util.GSet (LightWeightGSet.java:computeCapacity(361)) - capacity      = 2^18 = 262144 entries
2015-03-06 15:52:46,868 INFO  namenode.FSNamesystem (FSNamesystem.java:<init>(5663)) - dfs.namenode.safemode.threshold-pct = 0.9990000128746033
2015-03-06 15:52:46,868 INFO  namenode.FSNamesystem (FSNamesystem.java:<init>(5664)) - dfs.namenode.safemode.min.datanodes = 0
2015-03-06 15:52:46,868 INFO  namenode.FSNamesystem (FSNamesystem.java:<init>(5665)) - dfs.namenode.safemode.extension     = 0
2015-03-06 15:52:46,870 INFO  namenode.FSNamesystem (FSNamesystem.java:initRetryCache(957)) - Retry cache on namenode is enabled
2015-03-06 15:52:46,871 INFO  namenode.FSNamesystem (FSNamesystem.java:initRetryCache(965)) - Retry cache will use 0.03 of total heap and retry cache entry expiry time is 600000 millis
2015-03-06 15:52:46,874 INFO  util.GSet (LightWeightGSet.java:computeCapacity(354)) - Computing capacity for map NameNodeRetryCache
2015-03-06 15:52:46,874 INFO  util.GSet (LightWeightGSet.java:computeCapacity(355)) - VM type       = 64-bit
2015-03-06 15:52:46,875 INFO  util.GSet (LightWeightGSet.java:computeCapacity(356)) - 0.029999999329447746% max memory 910.3 MB = 279.6 KB
2015-03-06 15:52:46,875 INFO  util.GSet (LightWeightGSet.java:computeCapacity(361)) - capacity      = 2^15 = 32768 entries
2015-03-06 15:52:46,883 INFO  namenode.NNConf (NNConf.java:<init>(62)) - ACLs enabled? false
2015-03-06 15:52:46,883 INFO  namenode.NNConf (NNConf.java:<init>(66)) - XAttrs enabled? true
2015-03-06 15:52:46,884 INFO  namenode.NNConf (NNConf.java:<init>(74)) - Maximum size of an xattr: 16384
2015-03-06 15:52:52,024 INFO  namenode.FSImage (FSImage.java:format(145)) - Allocated new BlockPoolId: BP-1005227368-192.168.1.29-1425678771904
2015-03-06 15:52:52,542 INFO  common.Storage (NNStorage.java:format(552)) - Storage directory /mnt/common/ahaider/hadoop-2.6.0-src/hadoop-hdfs-project/hadoop-hdfs/target/test/data/dfs/name1 has been successfully formatted.
2015-03-06 15:52:52,955 INFO  common.Storage (NNStorage.java:format(552)) - Storage directory /mnt/common/ahaider/hadoop-2.6.0-src/hadoop-hdfs-project/hadoop-hdfs/target/test/data/dfs/name2 has been successfully formatted.
2015-03-06 15:52:53,812 INFO  namenode.NNStorageRetentionManager (NNStorageRetentionManager.java:getImageTxIdToRetain(203)) - Going to retain 1 images with txid >= 0
2015-03-06 15:52:53,820 INFO  namenode.NameNode (NameNode.java:createNameNode(1367)) - createNameNode []
2015-03-06 15:52:53,905 WARN  impl.MetricsConfig (MetricsConfig.java:loadFirst(124)) - Cannot locate configuration: tried hadoop-metrics2-namenode.properties,hadoop-metrics2.properties
2015-03-06 15:52:54,068 INFO  impl.MetricsSystemImpl (MetricsSystemImpl.java:startTimer(376)) - Scheduled snapshot period at 10 second(s).
2015-03-06 15:52:54,105 INFO  impl.MetricsSystemImpl (MetricsSystemImpl.java:start(191)) - NameNode metrics system started
2015-03-06 15:52:54,112 INFO  namenode.NameNode (NameNode.java:setClientNamenodeAddress(349)) - fs.defaultFS is hdfs://127.0.0.1:0
2015-03-06 15:52:54,174 INFO  hdfs.DFSUtil (DFSUtil.java:httpServerTemplateForNNAndJN(1694)) - Starting Web-server for hdfs at: http://localhost:0
2015-03-06 15:52:54,233 INFO  mortbay.log (Slf4jLog.java:info(67)) - Logging to org.slf4j.impl.Log4jLoggerAdapter(org.mortbay.log) via org.mortbay.log.Slf4jLog
2015-03-06 15:52:54,239 INFO  http.HttpRequestLog (HttpRequestLog.java:getRequestLog(80)) - Http request log for http.requests.namenode is not defined
2015-03-06 15:52:54,255 INFO  http.HttpServer2 (HttpServer2.java:addGlobalFilter(699)) - Added global filter 'safety' (class=org.apache.hadoop.http.HttpServer2$QuotingInputFilter)
2015-03-06 15:52:54,258 INFO  http.HttpServer2 (HttpServer2.java:addFilter(677)) - Added filter static_user_filter (class=org.apache.hadoop.http.lib.StaticUserWebFilter$StaticUserFilter) to context hdfs
2015-03-06 15:52:54,258 INFO  http.HttpServer2 (HttpServer2.java:addFilter(684)) - Added filter static_user_filter (class=org.apache.hadoop.http.lib.StaticUserWebFilter$StaticUserFilter) to context static
2015-03-06 15:52:54,258 INFO  http.HttpServer2 (HttpServer2.java:addFilter(684)) - Added filter static_user_filter (class=org.apache.hadoop.http.lib.StaticUserWebFilter$StaticUserFilter) to context logs
2015-03-06 15:52:54,286 INFO  http.HttpServer2 (NameNodeHttpServer.java:initWebHdfs(86)) - Added filter 'org.apache.hadoop.hdfs.web.AuthFilter' (class=org.apache.hadoop.hdfs.web.AuthFilter)
2015-03-06 15:52:54,289 INFO  http.HttpServer2 (HttpServer2.java:addJerseyResourcePackage(603)) - addJerseyResourcePackage: packageName=org.apache.hadoop.hdfs.server.namenode.web.resources;org.apache.hadoop.hdfs.web.resources, pathSpec=/webhdfs/v1/*
2015-03-06 15:52:54,311 INFO  http.HttpServer2 (HttpServer2.java:openListeners(887)) - Jetty bound to port 59384
2015-03-06 15:52:54,312 INFO  mortbay.log (Slf4jLog.java:info(67)) - jetty-6.1.26
2015-03-06 15:52:54,594 INFO  mortbay.log (Slf4jLog.java:info(67)) - Started HttpServer2$SelectChannelConnectorWithSafeStartup@localhost:59384
2015-03-06 15:52:54,630 INFO  namenode.FSNamesystem (FSNamesystem.java:<init>(774)) - No KeyProvider found.
2015-03-06 15:52:54,632 INFO  namenode.FSNamesystem (FSNamesystem.java:<init>(786)) - fsLock is fair:true
2015-03-06 15:52:54,635 INFO  blockmanagement.DatanodeManager (DatanodeManager.java:<init>(232)) - dfs.block.invalidate.limit=1000
2015-03-06 15:52:54,636 INFO  blockmanagement.DatanodeManager (DatanodeManager.java:<init>(238)) - dfs.namenode.datanode.registration.ip-hostname-check=true
2015-03-06 15:52:54,637 INFO  blockmanagement.BlockManager (InvalidateBlocks.java:printBlockDeletionTime(71)) - dfs.namenode.startup.delay.block.deletion.sec is set to 000:00:00:00.000
2015-03-06 15:52:54,638 INFO  blockmanagement.BlockManager (InvalidateBlocks.java:printBlockDeletionTime(76)) - The block deletion will start around 2015 Mar 06 15:52:54
2015-03-06 15:52:54,639 INFO  util.GSet (LightWeightGSet.java:computeCapacity(354)) - Computing capacity for map BlocksMap
2015-03-06 15:52:54,640 INFO  util.GSet (LightWeightGSet.java:computeCapacity(355)) - VM type       = 64-bit
2015-03-06 15:52:54,641 INFO  util.GSet (LightWeightGSet.java:computeCapacity(356)) - 2.0% max memory 910.3 MB = 18.2 MB
2015-03-06 15:52:54,641 INFO  util.GSet (LightWeightGSet.java:computeCapacity(361)) - capacity      = 2^21 = 2097152 entries
2015-03-06 15:52:54,672 INFO  blockmanagement.BlockManager (BlockManager.java:createBlockTokenSecretManager(364)) - dfs.block.access.token.enable=false
2015-03-06 15:52:54,674 INFO  blockmanagement.BlockManager (BlockManager.java:<init>(349)) - defaultReplication         = 1
2015-03-06 15:52:54,674 INFO  blockmanagement.BlockManager (BlockManager.java:<init>(350)) - maxReplication             = 512
2015-03-06 15:52:54,675 INFO  blockmanagement.BlockManager (BlockManager.java:<init>(351)) - minReplication             = 1
2015-03-06 15:52:54,675 INFO  blockmanagement.BlockManager (BlockManager.java:<init>(352)) - maxReplicationStreams      = 2
2015-03-06 15:52:54,676 INFO  blockmanagement.BlockManager (BlockManager.java:<init>(353)) - shouldCheckForEnoughRacks  = false
2015-03-06 15:52:54,677 INFO  blockmanagement.BlockManager (BlockManager.java:<init>(354)) - replicationRecheckInterval = 3000
2015-03-06 15:52:54,677 INFO  blockmanagement.BlockManager (BlockManager.java:<init>(355)) - encryptDataTransfer        = false
2015-03-06 15:52:54,678 INFO  blockmanagement.BlockManager (BlockManager.java:<init>(356)) - maxNumBlocksToLog          = 1000
2015-03-06 15:52:54,679 INFO  namenode.FSNamesystem (FSNamesystem.java:<init>(809)) - fsOwner             = ahaider (auth:SIMPLE)
2015-03-06 15:52:54,680 INFO  namenode.FSNamesystem (FSNamesystem.java:<init>(810)) - supergroup          = supergroup
2015-03-06 15:52:54,680 INFO  namenode.FSNamesystem (FSNamesystem.java:<init>(811)) - isPermissionEnabled = true
2015-03-06 15:52:54,682 INFO  namenode.FSNamesystem (FSNamesystem.java:<init>(822)) - HA Enabled: false
2015-03-06 15:52:54,683 INFO  namenode.FSNamesystem (FSNamesystem.java:<init>(859)) - Append Enabled: true
2015-03-06 15:52:54,685 INFO  util.GSet (LightWeightGSet.java:computeCapacity(354)) - Computing capacity for map INodeMap
2015-03-06 15:52:54,686 INFO  util.GSet (LightWeightGSet.java:computeCapacity(355)) - VM type       = 64-bit
2015-03-06 15:52:54,687 INFO  util.GSet (LightWeightGSet.java:computeCapacity(356)) - 1.0% max memory 910.3 MB = 9.1 MB
2015-03-06 15:52:54,688 INFO  util.GSet (LightWeightGSet.java:computeCapacity(361)) - capacity      = 2^20 = 1048576 entries
2015-03-06 15:52:54,710 INFO  namenode.NameNode (FSDirectory.java:<init>(234)) - Caching file names occuring more than 10 times
2015-03-06 15:52:54,715 INFO  util.GSet (LightWeightGSet.java:computeCapacity(354)) - Computing capacity for map cachedBlocks
2015-03-06 15:52:54,715 INFO  util.GSet (LightWeightGSet.java:computeCapacity(355)) - VM type       = 64-bit
2015-03-06 15:52:54,717 INFO  util.GSet (LightWeightGSet.java:computeCapacity(356)) - 0.25% max memory 910.3 MB = 2.3 MB
2015-03-06 15:52:54,717 INFO  util.GSet (LightWeightGSet.java:computeCapacity(361)) - capacity      = 2^18 = 262144 entries
2015-03-06 15:52:54,719 INFO  namenode.FSNamesystem (FSNamesystem.java:<init>(5663)) - dfs.namenode.safemode.threshold-pct = 0.9990000128746033
2015-03-06 15:52:54,720 INFO  namenode.FSNamesystem (FSNamesystem.java:<init>(5664)) - dfs.namenode.safemode.min.datanodes = 0
2015-03-06 15:52:54,721 INFO  namenode.FSNamesystem (FSNamesystem.java:<init>(5665)) - dfs.namenode.safemode.extension     = 0
2015-03-06 15:52:54,721 INFO  namenode.FSNamesystem (FSNamesystem.java:initRetryCache(957)) - Retry cache on namenode is enabled
2015-03-06 15:52:54,722 INFO  namenode.FSNamesystem (FSNamesystem.java:initRetryCache(965)) - Retry cache will use 0.03 of total heap and retry cache entry expiry time is 600000 millis
2015-03-06 15:52:54,723 INFO  util.GSet (LightWeightGSet.java:computeCapacity(354)) - Computing capacity for map NameNodeRetryCache
2015-03-06 15:52:54,724 INFO  util.GSet (LightWeightGSet.java:computeCapacity(355)) - VM type       = 64-bit
2015-03-06 15:52:54,725 INFO  util.GSet (LightWeightGSet.java:computeCapacity(356)) - 0.029999999329447746% max memory 910.3 MB = 279.6 KB
2015-03-06 15:52:54,725 INFO  util.GSet (LightWeightGSet.java:computeCapacity(361)) - capacity      = 2^15 = 32768 entries
2015-03-06 15:52:54,731 INFO  namenode.NNConf (NNConf.java:<init>(62)) - ACLs enabled? false
2015-03-06 15:52:54,732 INFO  namenode.NNConf (NNConf.java:<init>(66)) - XAttrs enabled? true
2015-03-06 15:52:54,733 INFO  namenode.NNConf (NNConf.java:<init>(74)) - Maximum size of an xattr: 16384
2015-03-06 15:52:55,311 INFO  common.Storage (Storage.java:tryLock(715)) - Lock on /mnt/common/ahaider/hadoop-2.6.0-src/hadoop-hdfs-project/hadoop-hdfs/target/test/data/dfs/name1/in_use.lock acquired by nodename 10509@hec-08.cs.iit.edu
2015-03-06 15:52:55,445 INFO  common.Storage (Storage.java:tryLock(715)) - Lock on /mnt/common/ahaider/hadoop-2.6.0-src/hadoop-hdfs-project/hadoop-hdfs/target/test/data/dfs/name2/in_use.lock acquired by nodename 10509@hec-08.cs.iit.edu
2015-03-06 15:52:55,458 INFO  namenode.FileJournalManager (FileJournalManager.java:recoverUnfinalizedSegments(362)) - Recovering unfinalized segments in /mnt/common/ahaider/hadoop-2.6.0-src/hadoop-hdfs-project/hadoop-hdfs/target/test/data/dfs/name1/current
2015-03-06 15:52:55,459 INFO  namenode.FileJournalManager (FileJournalManager.java:recoverUnfinalizedSegments(362)) - Recovering unfinalized segments in /mnt/common/ahaider/hadoop-2.6.0-src/hadoop-hdfs-project/hadoop-hdfs/target/test/data/dfs/name2/current
2015-03-06 15:52:55,464 INFO  namenode.FSImage (FSImage.java:loadFSImage(656)) - No edit log streams selected.
2015-03-06 15:52:55,513 INFO  namenode.FSImageFormatPBINode (FSImageFormatPBINode.java:loadINodeSection(214)) - Loading 1 INodes.
2015-03-06 15:52:55,537 INFO  namenode.FSImageFormatProtobuf (FSImageFormatProtobuf.java:load(182)) - Loaded FSImage in 0 seconds.
2015-03-06 15:52:55,538 INFO  namenode.FSImage (FSImage.java:loadFSImage(937)) - Loaded image for txid 0 from /mnt/common/ahaider/hadoop-2.6.0-src/hadoop-hdfs-project/hadoop-hdfs/target/test/data/dfs/name1/current/fsimage_0000000000000000000
2015-03-06 15:52:55,551 INFO  namenode.FSNamesystem (FSNamesystem.java:loadFSImage(1027)) - Need to save fs image? false (staleImage=false, haEnabled=false, isRollingUpgrade=false)
2015-03-06 15:52:55,554 INFO  namenode.FSEditLog (FSEditLog.java:startLogSegment(1173)) - Starting log segment at 1
2015-03-06 15:52:56,254 INFO  namenode.NameCache (NameCache.java:initialized(143)) - initialized with 0 entries 0 lookups
2015-03-06 15:52:56,255 INFO  namenode.FSNamesystem (FSNamesystem.java:loadFromDisk(746)) - Finished loading FSImage in 1522 msecs
2015-03-06 15:52:56,871 INFO  namenode.NameNode (NameNodeRpcServer.java:<init>(329)) - RPC server is binding to localhost:0
2015-03-06 15:52:56,880 INFO  ipc.CallQueueManager (CallQueueManager.java:<init>(53)) - Using callQueue class java.util.concurrent.LinkedBlockingQueue
2015-03-06 15:52:56,899 INFO  ipc.Server (Server.java:run(605)) - Starting Socket Reader #1 for port 59196
2015-03-06 15:52:57,044 INFO  namenode.NameNode (NameNode.java:initialize(603)) - Clients are to use localhost:59196 to access this namenode/service.
2015-03-06 15:52:57,055 INFO  namenode.FSNamesystem (FSNamesystem.java:registerMBean(6642)) - Registered FSNamesystemState MBean
2015-03-06 15:52:57,283 INFO  namenode.FSNamesystem (FSNamesystem.java:getCompleteBlocksTotal(6253)) - Number of blocks under construction: 0
2015-03-06 15:52:57,284 INFO  namenode.FSNamesystem (FSNamesystem.java:getCompleteBlocksTotal(6253)) - Number of blocks under construction: 0
2015-03-06 15:52:57,285 INFO  namenode.FSNamesystem (FSNamesystem.java:initializeReplQueues(1219)) - initializing replication queues
2015-03-06 15:52:57,286 INFO  hdfs.StateChange (FSNamesystem.java:leave(5737)) - STATE* Leaving safe mode after 2 secs
2015-03-06 15:52:57,287 INFO  hdfs.StateChange (FSNamesystem.java:leave(5748)) - STATE* Network topology has 0 racks and 0 datanodes
2015-03-06 15:52:57,288 INFO  hdfs.StateChange (FSNamesystem.java:leave(5751)) - STATE* UnderReplicatedBlocks has 0 blocks
2015-03-06 15:52:57,314 INFO  blockmanagement.BlockManager (BlockManager.java:processMisReplicatesAsync(2612)) - Total number of blocks            = 0
2015-03-06 15:52:57,315 INFO  blockmanagement.BlockManager (BlockManager.java:processMisReplicatesAsync(2613)) - Number of invalid blocks          = 0
2015-03-06 15:52:57,315 INFO  blockmanagement.BlockManager (BlockManager.java:processMisReplicatesAsync(2614)) - Number of under-replicated blocks = 0
2015-03-06 15:52:57,316 INFO  blockmanagement.BlockManager (BlockManager.java:processMisReplicatesAsync(2615)) - Number of  over-replicated blocks = 0
2015-03-06 15:52:57,316 INFO  blockmanagement.BlockManager (BlockManager.java:processMisReplicatesAsync(2617)) - Number of blocks being written    = 0
2015-03-06 15:52:57,317 INFO  hdfs.StateChange (BlockManager.java:processMisReplicatesAsync(2618)) - STATE* Replication Queue initialization scan for invalid, over- and under-replicated blocks completed in 31 msec
2015-03-06 15:52:57,428 INFO  ipc.Server (Server.java:run(827)) - IPC Server Responder: starting
2015-03-06 15:52:57,428 INFO  ipc.Server (Server.java:run(674)) - IPC Server listener on 59196: starting
2015-03-06 15:52:57,445 INFO  namenode.NameNode (NameNode.java:startCommonServices(646)) - NameNode RPC up at: localhost/127.0.0.1:59196
2015-03-06 15:52:57,446 INFO  namenode.FSNamesystem (FSNamesystem.java:startActiveServices(1140)) - Starting services required for active state
2015-03-06 15:52:57,460 INFO  blockmanagement.CacheReplicationMonitor (CacheReplicationMonitor.java:run(160)) - Starting CacheReplicationMonitor with interval 30000 milliseconds
2015-03-06 15:52:57,462 INFO  blockmanagement.CacheReplicationMonitor (CacheReplicationMonitor.java:run(178)) - Rescanning after 7949924840 milliseconds
2015-03-06 15:52:57,465 INFO  blockmanagement.CacheReplicationMonitor (CacheReplicationMonitor.java:run(201)) - Scanned 0 directive(s) and 0 block(s) in 3 millisecond(s).
2015-03-06 15:53:01,790 INFO  hdfs.MiniDFSCluster (MiniDFSCluster.java:startDataNodes(1407)) - Starting DataNode 0 with dfs.datanode.data.dir: [DISK]file:/mnt/common/ahaider/hadoop-2.6.0-src/hadoop-hdfs-project/hadoop-hdfs/target/test/data/dfs/data/data1,[DISK]file:/mnt/common/ahaider/hadoop-2.6.0-src/hadoop-hdfs-project/hadoop-hdfs/target/test/data/dfs/data/data2
2015-03-06 15:53:02,178 INFO  impl.MetricsSystemImpl (MetricsSystemImpl.java:init(158)) - DataNode metrics system started (again)
2015-03-06 15:53:02,181 INFO  datanode.DataNode (DataNode.java:<init>(414)) - Configured hostname is 127.0.0.1
2015-03-06 15:53:02,196 INFO  datanode.DataNode (DataNode.java:startDataNode(1049)) - Starting DataNode with maxLockedMemory = 0
2015-03-06 15:53:02,217 INFO  datanode.DataNode (DataNode.java:initDataXceiver(848)) - Opened streaming server at /127.0.0.1:43446
2015-03-06 15:53:02,225 INFO  datanode.DataNode (DataXceiverServer.java:<init>(76)) - Balancing bandwith is 1048576 bytes/s
2015-03-06 15:53:02,225 INFO  datanode.DataNode (DataXceiverServer.java:<init>(77)) - Number threads for balancing is 5
2015-03-06 15:53:02,235 INFO  http.HttpRequestLog (HttpRequestLog.java:getRequestLog(80)) - Http request log for http.requests.datanode is not defined
2015-03-06 15:53:02,238 INFO  http.HttpServer2 (HttpServer2.java:addGlobalFilter(699)) - Added global filter 'safety' (class=org.apache.hadoop.http.HttpServer2$QuotingInputFilter)
2015-03-06 15:53:02,240 INFO  http.HttpServer2 (HttpServer2.java:addFilter(677)) - Added filter static_user_filter (class=org.apache.hadoop.http.lib.StaticUserWebFilter$StaticUserFilter) to context datanode
2015-03-06 15:53:02,241 INFO  http.HttpServer2 (HttpServer2.java:addFilter(684)) - Added filter static_user_filter (class=org.apache.hadoop.http.lib.StaticUserWebFilter$StaticUserFilter) to context static
2015-03-06 15:53:02,242 INFO  http.HttpServer2 (HttpServer2.java:addFilter(684)) - Added filter static_user_filter (class=org.apache.hadoop.http.lib.StaticUserWebFilter$StaticUserFilter) to context logs
2015-03-06 15:53:02,254 INFO  http.HttpServer2 (HttpServer2.java:addJerseyResourcePackage(603)) - addJerseyResourcePackage: packageName=org.apache.hadoop.hdfs.server.datanode.web.resources;org.apache.hadoop.hdfs.web.resources, pathSpec=/webhdfs/v1/*
2015-03-06 15:53:02,256 INFO  http.HttpServer2 (HttpServer2.java:openListeners(887)) - Jetty bound to port 34208
2015-03-06 15:53:02,257 INFO  mortbay.log (Slf4jLog.java:info(67)) - jetty-6.1.26
2015-03-06 15:53:02,323 INFO  mortbay.log (Slf4jLog.java:info(67)) - Started HttpServer2$SelectChannelConnectorWithSafeStartup@localhost:34208
2015-03-06 15:53:02,327 INFO  datanode.DataNode (DataNode.java:startDataNode(1066)) - dnUserName = ahaider
2015-03-06 15:53:02,328 INFO  datanode.DataNode (DataNode.java:startDataNode(1067)) - supergroup = supergroup
2015-03-06 15:53:02,369 INFO  ipc.CallQueueManager (CallQueueManager.java:<init>(53)) - Using callQueue class java.util.concurrent.LinkedBlockingQueue
2015-03-06 15:53:02,372 INFO  ipc.Server (Server.java:run(605)) - Starting Socket Reader #1 for port 52219
2015-03-06 15:53:02,390 INFO  datanode.DataNode (DataNode.java:initIpcServer(723)) - Opened IPC server at /127.0.0.1:52219
2015-03-06 15:53:02,417 INFO  datanode.DataNode (BlockPoolManager.java:refreshNamenodes(152)) - Refresh request received for nameservices: null
2015-03-06 15:53:02,425 INFO  datanode.DataNode (BlockPoolManager.java:doRefreshNamenodes(197)) - Starting BPOfferServices for nameservices: <default>
2015-03-06 15:53:02,455 INFO  datanode.DataNode (BPServiceActor.java:run(821)) - Block pool <registering> (Datanode Uuid unassigned) service to localhost/127.0.0.1:59196 starting to offer service
2015-03-06 15:53:02,480 INFO  ipc.Server (Server.java:run(827)) - IPC Server Responder: starting
2015-03-06 15:53:02,480 INFO  ipc.Server (Server.java:run(674)) - IPC Server listener on 52219: starting
2015-03-06 15:53:03,302 INFO  datanode.DataNode (DataNode.java:checkDatanodeUuid(1142)) - Generated and persisted new Datanode UUID d2d119b1-3183-4be2-b8d1-43e32db35a4a
2015-03-06 15:53:03,305 INFO  datanode.DataNode (SimulatedFSDataset.java:registerMBean(1036)) - Registered FSDatasetState MBean
2015-03-06 15:53:03,308 INFO  datanode.DataNode (DataNode.java:initDataBlockScanner(798)) - Periodic Block Verification scan disabled because verification is turned off by configuration
2015-03-06 15:53:03,314 INFO  datanode.DirectoryScanner (DirectoryScanner.java:start(330)) - Periodic Directory Tree Verification scan starting at 1425678915313 with interval 21600000
2015-03-06 15:53:03,319 INFO  datanode.DataNode (BPServiceActor.java:register(781)) - Block pool BP-1005227368-192.168.1.29-1425678771904 (Datanode Uuid null) service to localhost/127.0.0.1:59196 beginning handshake with NN
2015-03-06 15:53:03,335 INFO  hdfs.StateChange (DatanodeManager.java:registerDatanode(903)) - BLOCK* registerDatanode: from DatanodeRegistration(127.0.0.1, datanodeUuid=d2d119b1-3183-4be2-b8d1-43e32db35a4a, infoPort=34208, ipcPort=52219, storageInfo=lv=-56;cid=testClusterID;nsid=443646757;c=0) storage d2d119b1-3183-4be2-b8d1-43e32db35a4a
2015-03-06 15:53:03,356 INFO  blockmanagement.DatanodeDescriptor (DatanodeDescriptor.java:updateHeartbeatState(388)) - Number of failed storage changes from 0 to 0
2015-03-06 15:53:03,359 INFO  net.NetworkTopology (NetworkTopology.java:add(419)) - Adding a new node: /default-rack/127.0.0.1:43446
2015-03-06 15:53:03,370 INFO  datanode.DataNode (BPServiceActor.java:register(794)) - Block pool Block pool BP-1005227368-192.168.1.29-1425678771904 (Datanode Uuid null) service to localhost/127.0.0.1:59196 successfully registered with NN
2015-03-06 15:53:03,371 INFO  datanode.DataNode (BPServiceActor.java:offerService(653)) - For namenode localhost/127.0.0.1:59196 using DELETEREPORT_INTERVAL of 300000 msec  BLOCKREPORT_INTERVAL of 21600000msec CACHEREPORT_INTERVAL of 10000msec Initial delay: 0msec; heartBeatInterval=3000
2015-03-06 15:53:03,424 INFO  hdfs.MiniDFSCluster (MiniDFSCluster.java:shouldWait(2246)) - dn.getCapacity() == 0
2015-03-06 15:53:03,425 INFO  hdfs.MiniDFSCluster (MiniDFSCluster.java:waitActive(2182)) - Waiting for cluster to become active
2015-03-06 15:53:03,428 INFO  blockmanagement.DatanodeDescriptor (DatanodeDescriptor.java:updateHeartbeatState(388)) - Number of failed storage changes from 0 to 0
2015-03-06 15:53:03,429 INFO  blockmanagement.DatanodeDescriptor (DatanodeDescriptor.java:updateStorage(743)) - Adding new storage ID SimulatedStorage-DS-b7300541-d553-40f2-86e0-e2d8cef6b780 for DN 127.0.0.1:43446
2015-03-06 15:53:03,448 INFO  datanode.DataNode (BPOfferService.java:updateActorStatesFromHeartbeat(503)) - Namenode Block pool BP-1005227368-192.168.1.29-1425678771904 (Datanode Uuid d2d119b1-3183-4be2-b8d1-43e32db35a4a) service to localhost/127.0.0.1:59196 trying to claim ACTIVE state with txid=1
2015-03-06 15:53:03,448 INFO  datanode.DataNode (BPOfferService.java:updateActorStatesFromHeartbeat(515)) - Acknowledging ACTIVE Namenode Block pool BP-1005227368-192.168.1.29-1425678771904 (Datanode Uuid d2d119b1-3183-4be2-b8d1-43e32db35a4a) service to localhost/127.0.0.1:59196
2015-03-06 15:53:03,467 INFO  blockmanagement.BlockManager (BlockManager.java:processReport(1815)) - BLOCK* processReport: Received first block report from DatanodeStorage[SimulatedStorage-DS-b7300541-d553-40f2-86e0-e2d8cef6b780,DISK,NORMAL] after starting up or becoming active. Its block contents are no longer considered stale
2015-03-06 15:53:03,468 INFO  BlockStateChange (BlockManager.java:processReport(1831)) - BLOCK* processReport: from storage SimulatedStorage-DS-b7300541-d553-40f2-86e0-e2d8cef6b780 node DatanodeRegistration(127.0.0.1, datanodeUuid=d2d119b1-3183-4be2-b8d1-43e32db35a4a, infoPort=34208, ipcPort=52219, storageInfo=lv=-56;cid=testClusterID;nsid=443646757;c=0), blocks: 0, hasStaleStorages: false, processing time: 5 msecs
2015-03-06 15:53:03,501 INFO  datanode.DataNode (BPServiceActor.java:blockReport(514)) - Sent 1 blockreports 0 blocks total. Took 3 msec to generate and 48 msecs for RPC and NN processing.  Got back commands org.apache.hadoop.hdfs.server.protocol.FinalizeCommand@247ef45b
2015-03-06 15:53:03,501 INFO  datanode.DataNode (BPOfferService.java:processCommandFromActive(689)) - Got finalize command for block pool BP-1005227368-192.168.1.29-1425678771904
2015-03-06 15:53:03,533 INFO  hdfs.MiniDFSCluster (MiniDFSCluster.java:waitActive(2213)) - Cluster is active
2015-03-06 15:53:03,548 INFO  hdfs.MiniDFSCluster (MiniDFSCluster.java:waitActive(2213)) - Cluster is active
2015-03-06 15:53:03,565 INFO  namenode.EditLogFileOutputStream (EditLogFileOutputStream.java:flushAndSync(200)) - Nothing to flush
2015-03-06 15:53:03,566 INFO  namenode.EditLogFileOutputStream (EditLogFileOutputStream.java:flushAndSync(200)) - Nothing to flush
2015-03-06 15:53:03,583 INFO  FSNamesystem.audit (FSNamesystem.java:logAuditMessage(9332)) - allowed=true	ugi=ahaider (auth:SIMPLE)	ip=/127.0.0.1	cmd=mkdirs	src=/	dst=null	perm=ahaider:supergroup:rwxr-xr-x	proto=rpc
2015-03-06 15:53:03,640 INFO  FSNamesystem.audit (FSNamesystem.java:logAuditMessage(9332)) - allowed=true	ugi=ahaider (auth:SIMPLE)	ip=/127.0.0.1	cmd=create	src=/blockLengthHintIsPropagated.dat	dst=null	perm=ahaider:supergroup:rw-r--r--	proto=rpc
2015-03-06 15:53:03,777 INFO  hdfs.StateChange (FSNamesystem.java:saveAllocatedBlock(3660)) - BLOCK* allocateBlock: /blockLengthHintIsPropagated.dat. BP-1005227368-192.168.1.29-1425678771904 blk_1073741825_1001{blockUCState=UNDER_CONSTRUCTION, primaryNodeIndex=-1, replicas=[ReplicaUnderConstruction[[DISK]SimulatedStorage-DS-b7300541-d553-40f2-86e0-e2d8cef6b780:NORMAL:127.0.0.1:43446|RBW]]}
2015-03-06 15:53:03,938 INFO  datanode.DataNode (DataXceiver.java:writeBlock(593)) - Receiving BP-1005227368-192.168.1.29-1425678771904:blk_1073741825_1001 src: /127.0.0.1:41757 dest: /127.0.0.1:43446
2015-03-06 15:53:03,979 WARN  datanode.DataNode (BlockReceiver.java:<init>(251)) - Could not get file descriptor for outputstream of class class java.util.zip.GZIPOutputStream
2015-03-06 15:53:04,118 WARN  datanode.DataNode (SimulatedFSDataset.java:finalizeBlock(199)) - Size passed to finalize (2048)does not match what was written:4099
2015-03-06 15:53:04,121 WARN  datanode.DataNode (BlockReceiver.java:run(1265)) - IOException in BlockReceiver.run(): 
java.io.IOException: Size passed to finalize does not match the amount of data written
	at org.apache.hadoop.hdfs.server.datanode.SimulatedFSDataset$BInfo.finalizeBlock(SimulatedFSDataset.java:201)
	at org.apache.hadoop.hdfs.server.datanode.SimulatedFSDataset.finalizeBlock(SimulatedFSDataset.java:546)
	at org.apache.hadoop.hdfs.server.datanode.BlockReceiver$PacketResponder.finalizeBlock(BlockReceiver.java:1295)
	at org.apache.hadoop.hdfs.server.datanode.BlockReceiver$PacketResponder.run(BlockReceiver.java:1254)
	at java.lang.Thread.run(Thread.java:636)
2015-03-06 15:53:04,126 INFO  datanode.DataNode (DataNode.java:checkDiskErrorAsync(1739)) - Starting CheckDiskError Thread
2015-03-06 15:53:04,127 INFO  datanode.DataNode (BlockReceiver.java:run(1268)) - PacketResponder: BP-1005227368-192.168.1.29-1425678771904:blk_1073741825_1001, type=LAST_IN_PIPELINE, downstreams=0:[]
java.io.IOException: Size passed to finalize does not match the amount of data written
	at org.apache.hadoop.hdfs.server.datanode.SimulatedFSDataset$BInfo.finalizeBlock(SimulatedFSDataset.java:201)
	at org.apache.hadoop.hdfs.server.datanode.SimulatedFSDataset.finalizeBlock(SimulatedFSDataset.java:546)
	at org.apache.hadoop.hdfs.server.datanode.BlockReceiver$PacketResponder.finalizeBlock(BlockReceiver.java:1295)
	at org.apache.hadoop.hdfs.server.datanode.BlockReceiver$PacketResponder.run(BlockReceiver.java:1254)
	at java.lang.Thread.run(Thread.java:636)
2015-03-06 15:53:04,128 INFO  datanode.DataNode (BlockReceiver.java:run(1282)) - PacketResponder: BP-1005227368-192.168.1.29-1425678771904:blk_1073741825_1001, type=LAST_IN_PIPELINE, downstreams=0:[] terminating
2015-03-06 15:53:04,129 WARN  hdfs.DFSClient (DFSOutputStream.java:run(954)) - DFSOutputStream ResponseProcessor exception  for block BP-1005227368-192.168.1.29-1425678771904:blk_1073741825_1001
java.io.EOFException: Premature EOF: no length prefix available
	at org.apache.hadoop.hdfs.protocolPB.PBHelper.vintPrefixed(PBHelper.java:2203)
	at org.apache.hadoop.hdfs.protocol.datatransfer.PipelineAck.readFields(PipelineAck.java:176)
	at org.apache.hadoop.hdfs.DFSOutputStream$DataStreamer$ResponseProcessor.run(DFSOutputStream.java:867)
2015-03-06 15:53:04,130 INFO  hdfs.MiniDFSCluster (MiniDFSCluster.java:shutdown(1706)) - Shutting down the Mini HDFS Cluster
2015-03-06 15:53:04,130 INFO  hdfs.MiniDFSCluster (MiniDFSCluster.java:shutdownDataNodes(1738)) - Shutting down DataNode 0
2015-03-06 15:53:04,131 WARN  datanode.DirectoryScanner (DirectoryScanner.java:shutdown(376)) - DirectoryScanner: shutdown has been called
2015-03-06 15:53:04,133 INFO  datanode.DataNode (DataXceiverServer.java:closeAllPeers(263)) - Closing all peers.
2015-03-06 15:53:04,177 INFO  mortbay.log (Slf4jLog.java:info(67)) - Stopped HttpServer2$SelectChannelConnectorWithSafeStartup@localhost:0
2015-03-06 15:53:04,278 INFO  datanode.DataNode (DataNode.java:shutdown(1655)) - Waiting for threadgroup to exit, active threads is 0
2015-03-06 15:53:04,279 INFO  ipc.Server (Server.java:stop(2437)) - Stopping server on 52219
2015-03-06 15:53:04,282 INFO  ipc.Server (Server.java:run(706)) - Stopping IPC Server listener on 52219
2015-03-06 15:53:04,282 WARN  datanode.DataNode (BPServiceActor.java:offerService(738)) - BPOfferService for Block pool BP-1005227368-192.168.1.29-1425678771904 (Datanode Uuid d2d119b1-3183-4be2-b8d1-43e32db35a4a) service to localhost/127.0.0.1:59196 interrupted
2015-03-06 15:53:04,282 INFO  ipc.Server (Server.java:run(832)) - Stopping IPC Server Responder
2015-03-06 15:53:04,283 WARN  datanode.DataNode (BPServiceActor.java:run(861)) - Ending block pool service for: Block pool BP-1005227368-192.168.1.29-1425678771904 (Datanode Uuid d2d119b1-3183-4be2-b8d1-43e32db35a4a) service to localhost/127.0.0.1:59196
2015-03-06 15:53:04,284 INFO  datanode.DataNode (BlockPoolManager.java:remove(103)) - Removed Block pool BP-1005227368-192.168.1.29-1425678771904 (Datanode Uuid d2d119b1-3183-4be2-b8d1-43e32db35a4a)
2015-03-06 15:53:04,286 INFO  datanode.DataNode (DataNode.java:shutdown(1720)) - Shutdown complete.
2015-03-06 15:53:04,286 INFO  namenode.FSNamesystem (FSNamesystem.java:stopActiveServices(1246)) - Stopping services started for active state
2015-03-06 15:53:04,287 INFO  namenode.FSEditLog (FSEditLog.java:endCurrentLogSegment(1214)) - Ending log segment 1
2015-03-06 15:53:04,288 INFO  namenode.FSNamesystem (FSNamesystem.java:run(5274)) - LazyPersistFileScrubber was interrupted, exiting
2015-03-06 15:53:04,289 INFO  namenode.FSNamesystem (FSNamesystem.java:run(5207)) - NameNodeEditLogRoller was interrupted, exiting
2015-03-06 15:53:04,290 INFO  namenode.FSEditLog (FSEditLog.java:printStatistics(691)) - Number of transactions: 6 Total time for transactions(ms): 25 Number of transactions batched in Syncs: 0 Number of syncs: 6 SyncTimes(ms): 22 18 
2015-03-06 15:53:04,384 INFO  namenode.FileJournalManager (FileJournalManager.java:finalizeLogSegment(133)) - Finalizing edits file /mnt/common/ahaider/hadoop-2.6.0-src/hadoop-hdfs-project/hadoop-hdfs/target/test/data/dfs/name1/current/edits_inprogress_0000000000000000001 -> /mnt/common/ahaider/hadoop-2.6.0-src/hadoop-hdfs-project/hadoop-hdfs/target/test/data/dfs/name1/current/edits_0000000000000000001-0000000000000000006
2015-03-06 15:53:04,530 INFO  namenode.FileJournalManager (FileJournalManager.java:finalizeLogSegment(133)) - Finalizing edits file /mnt/common/ahaider/hadoop-2.6.0-src/hadoop-hdfs-project/hadoop-hdfs/target/test/data/dfs/name2/current/edits_inprogress_0000000000000000001 -> /mnt/common/ahaider/hadoop-2.6.0-src/hadoop-hdfs-project/hadoop-hdfs/target/test/data/dfs/name2/current/edits_0000000000000000001-0000000000000000006
2015-03-06 15:53:04,611 INFO  blockmanagement.CacheReplicationMonitor (CacheReplicationMonitor.java:run(169)) - Shutting down CacheReplicationMonitor
2015-03-06 15:53:04,613 INFO  ipc.Server (Server.java:stop(2437)) - Stopping server on 59196
2015-03-06 15:53:04,617 INFO  ipc.Server (Server.java:run(706)) - Stopping IPC Server listener on 59196
2015-03-06 15:53:04,617 INFO  ipc.Server (Server.java:run(832)) - Stopping IPC Server Responder
2015-03-06 15:53:04,618 INFO  blockmanagement.BlockManager (BlockManager.java:run(3533)) - Stopping ReplicationMonitor.
2015-03-06 15:53:04,618 WARN  blockmanagement.DecommissionManager (DecommissionManager.java:run(78)) - Monitor interrupted: java.lang.InterruptedException: sleep interrupted
2015-03-06 15:53:04,648 INFO  namenode.FSNamesystem (FSNamesystem.java:stopActiveServices(1246)) - Stopping services started for active state
2015-03-06 15:53:04,649 INFO  namenode.FSNamesystem (FSNamesystem.java:stopStandbyServices(1334)) - Stopping services started for standby state
2015-03-06 15:53:04,657 INFO  mortbay.log (Slf4jLog.java:info(67)) - Stopped HttpServer2$SelectChannelConnectorWithSafeStartup@localhost:0
2015-03-06 15:53:04,758 INFO  impl.MetricsSystemImpl (MetricsSystemImpl.java:stop(210)) - Stopping DataNode metrics system...
2015-03-06 15:53:04,761 INFO  impl.MetricsSystemImpl (MetricsSystemImpl.java:stop(216)) - DataNode metrics system stopped.
2015-03-06 15:53:04,762 INFO  impl.MetricsSystemImpl (MetricsSystemImpl.java:shutdown(605)) - DataNode metrics system shutdown complete.
]]></system-out>
  </testcase>
</testsuite>