<?xml version="1.0" encoding="UTF-8"?>
<testsuite name="org.apache.hadoop.hdfs.TestClientBlockVerification" time="0.414" tests="4" errors="4" skipped="0" failures="0">
  <properties>
    <property name="java.runtime.name" value="OpenJDK Runtime Environment"/>
    <property name="sun.boot.library.path" value="/usr/lib/jvm/java-6-openjdk/jre/lib/amd64"/>
    <property name="java.vm.version" value="16.0-b13"/>
    <property name="java.vm.vendor" value="Sun Microsystems Inc."/>
    <property name="java.vendor.url" value="http://java.sun.com/"/>
    <property name="path.separator" value=":"/>
    <property name="guice.disable.misplaced.annotation.check" value="true"/>
    <property name="java.vm.name" value="OpenJDK 64-Bit Server VM"/>
    <property name="file.encoding.pkg" value="sun.io"/>
    <property name="user.country" value="US"/>
    <property name="sun.java.launcher" value="SUN_STANDARD"/>
    <property name="sun.os.patch.level" value="unknown"/>
    <property name="java.vm.specification.name" value="Java Virtual Machine Specification"/>
    <property name="user.dir" value="/mnt/common/ahaider/hadoop-2.6.0-src/hadoop-hdfs-project"/>
    <property name="java.runtime.version" value="1.6.0_18-b18"/>
    <property name="java.awt.graphicsenv" value="sun.awt.X11GraphicsEnvironment"/>
    <property name="java.endorsed.dirs" value="/usr/lib/jvm/java-6-openjdk/jre/lib/endorsed"/>
    <property name="os.arch" value="amd64"/>
    <property name="java.io.tmpdir" value="/tmp"/>
    <property name="line.separator" value="&#10;"/>
    <property name="java.vm.specification.vendor" value="Sun Microsystems Inc."/>
    <property name="os.name" value="Linux"/>
    <property name="classworlds.conf" value="/mnt/common/ahaider/apache-maven-3.2.5/bin/m2.conf"/>
    <property name="sun.jnu.encoding" value="UTF-8"/>
    <property name="java.library.path" value="/usr/lib/jvm/java-6-openjdk/jre/lib/amd64/server:/usr/lib/jvm/java-6-openjdk/jre/lib/amd64:/usr/lib/jvm/java-6-openjdk/jre/../lib/amd64:/usr/java/packages/lib/amd64:/usr/lib/jni:/lib:/usr/lib"/>
    <property name="java.specification.name" value="Java Platform API Specification"/>
    <property name="java.class.version" value="50.0"/>
    <property name="sun.management.compiler" value="HotSpot 64-Bit Server Compiler"/>
    <property name="os.version" value="2.6.28.10"/>
    <property name="user.home" value="/mnt/common/ahaider"/>
    <property name="user.timezone" value="America/Chicago"/>
    <property name="java.awt.printerjob" value="sun.print.PSPrinterJob"/>
    <property name="file.encoding" value="UTF-8"/>
    <property name="java.specification.version" value="1.6"/>
    <property name="user.name" value="ahaider"/>
    <property name="java.class.path" value="/mnt/common/ahaider/apache-maven-3.2.5/boot/plexus-classworlds-2.5.2.jar"/>
    <property name="java.vm.specification.version" value="1.0"/>
    <property name="sun.arch.data.model" value="64"/>
    <property name="java.home" value="/usr/lib/jvm/java-6-openjdk/jre"/>
    <property name="java.specification.vendor" value="Sun Microsystems Inc."/>
    <property name="user.language" value="en"/>
    <property name="java.vm.info" value="mixed mode"/>
    <property name="java.version" value="1.6.0_18"/>
    <property name="java.ext.dirs" value="/usr/lib/jvm/java-6-openjdk/jre/lib/ext:/usr/java/packages/lib/ext"/>
    <property name="securerandom.source" value="file:/dev/./urandom"/>
    <property name="sun.boot.class.path" value="/usr/lib/jvm/java-6-openjdk/jre/lib/resources.jar:/usr/lib/jvm/java-6-openjdk/jre/lib/rt.jar:/usr/lib/jvm/java-6-openjdk/jre/lib/sunrsasign.jar:/usr/lib/jvm/java-6-openjdk/jre/lib/jsse.jar:/usr/lib/jvm/java-6-openjdk/jre/lib/jce.jar:/usr/lib/jvm/java-6-openjdk/jre/lib/charsets.jar:/usr/lib/jvm/java-6-openjdk/jre/lib/rhino.jar:/usr/lib/jvm/java-6-openjdk/jre/classes"/>
    <property name="java.vendor" value="Sun Microsystems Inc."/>
    <property name="maven.home" value="/mnt/common/ahaider/apache-maven-3.2.5"/>
    <property name="file.separator" value="/"/>
    <property name="java.vendor.url.bug" value="http://java.sun.com/cgi-bin/bugreport.cgi"/>
    <property name="sun.cpu.endian" value="little"/>
    <property name="sun.io.unicode.encoding" value="UnicodeLittle"/>
    <property name="sun.cpu.isalist" value=""/>
  </properties>
  <testcase name="testIncompleteRead" classname="org.apache.hadoop.hdfs.TestClientBlockVerification" time="0.393">
    <error message="Checksum error: /127.0.0.1:37719:1073741825 at 0 exp: -1301207568 got: 1904987288" type="org.apache.hadoop.fs.ChecksumException">org.apache.hadoop.fs.ChecksumException: Checksum error: /127.0.0.1:37719:1073741825 at 0 exp: -1301207568 got: 1904987288
	at org.apache.hadoop.util.DataChecksum.verifyChunkedSums(DataChecksum.java:325)
	at org.apache.hadoop.hdfs.RemoteBlockReader2.readNextPacket(RemoteBlockReader2.java:216)
	at org.apache.hadoop.hdfs.RemoteBlockReader2.read(RemoteBlockReader2.java:146)
	at org.apache.hadoop.hdfs.BlockReaderTestUtil.readAndCheckEOS(BlockReaderTestUtil.java:152)
	at org.apache.hadoop.hdfs.TestClientBlockVerification.testIncompleteRead(TestClientBlockVerification.java:74)
</error>
    <system-out><![CDATA[2015-03-06 15:51:41,412 INFO  hdfs.MiniDFSCluster (MiniDFSCluster.java:<init>(442)) - starting cluster: numNameNodes=1, numDataNodes=1
2015-03-06 15:51:43,114 WARN  util.NativeCodeLoader (NativeCodeLoader.java:<clinit>(62)) - Unable to load native-hadoop library for your platform... using builtin-java classes where applicable
Formatting using clusterid: testClusterID
2015-03-06 15:51:43,210 INFO  namenode.FSNamesystem (FSNamesystem.java:<init>(774)) - No KeyProvider found.
2015-03-06 15:51:43,257 INFO  namenode.FSNamesystem (FSNamesystem.java:<init>(786)) - fsLock is fair:true
2015-03-06 15:51:43,307 INFO  Configuration.deprecation (Configuration.java:warnOnceIfDeprecated(1049)) - hadoop.configured.node.mapping is deprecated. Instead, use net.topology.configured.node.mapping
2015-03-06 15:51:43,308 INFO  blockmanagement.DatanodeManager (DatanodeManager.java:<init>(232)) - dfs.block.invalidate.limit=1000
2015-03-06 15:51:43,308 INFO  blockmanagement.DatanodeManager (DatanodeManager.java:<init>(238)) - dfs.namenode.datanode.registration.ip-hostname-check=true
2015-03-06 15:51:43,310 INFO  blockmanagement.BlockManager (InvalidateBlocks.java:printBlockDeletionTime(71)) - dfs.namenode.startup.delay.block.deletion.sec is set to 000:00:00:00.000
2015-03-06 15:51:43,318 INFO  blockmanagement.BlockManager (InvalidateBlocks.java:printBlockDeletionTime(76)) - The block deletion will start around 2015 Mar 06 15:51:43
2015-03-06 15:51:43,321 INFO  util.GSet (LightWeightGSet.java:computeCapacity(354)) - Computing capacity for map BlocksMap
2015-03-06 15:51:43,321 INFO  util.GSet (LightWeightGSet.java:computeCapacity(355)) - VM type       = 64-bit
2015-03-06 15:51:43,324 INFO  util.GSet (LightWeightGSet.java:computeCapacity(356)) - 2.0% max memory 910.3 MB = 18.2 MB
2015-03-06 15:51:43,324 INFO  util.GSet (LightWeightGSet.java:computeCapacity(361)) - capacity      = 2^21 = 2097152 entries
2015-03-06 15:51:43,357 INFO  blockmanagement.BlockManager (BlockManager.java:createBlockTokenSecretManager(364)) - dfs.block.access.token.enable=false
2015-03-06 15:51:43,358 INFO  blockmanagement.BlockManager (BlockManager.java:<init>(349)) - defaultReplication         = 1
2015-03-06 15:51:43,358 INFO  blockmanagement.BlockManager (BlockManager.java:<init>(350)) - maxReplication             = 512
2015-03-06 15:51:43,361 INFO  blockmanagement.BlockManager (BlockManager.java:<init>(351)) - minReplication             = 1
2015-03-06 15:51:43,361 INFO  blockmanagement.BlockManager (BlockManager.java:<init>(352)) - maxReplicationStreams      = 2
2015-03-06 15:51:43,361 INFO  blockmanagement.BlockManager (BlockManager.java:<init>(353)) - shouldCheckForEnoughRacks  = false
2015-03-06 15:51:43,361 INFO  blockmanagement.BlockManager (BlockManager.java:<init>(354)) - replicationRecheckInterval = 3000
2015-03-06 15:51:43,499 INFO  blockmanagement.BlockManager (BlockManager.java:<init>(355)) - encryptDataTransfer        = false
2015-03-06 15:51:43,500 INFO  blockmanagement.BlockManager (BlockManager.java:<init>(356)) - maxNumBlocksToLog          = 1000
2015-03-06 15:51:43,507 INFO  namenode.FSNamesystem (FSNamesystem.java:<init>(809)) - fsOwner             = ahaider (auth:SIMPLE)
2015-03-06 15:51:43,508 INFO  namenode.FSNamesystem (FSNamesystem.java:<init>(810)) - supergroup          = supergroup
2015-03-06 15:51:43,508 INFO  namenode.FSNamesystem (FSNamesystem.java:<init>(811)) - isPermissionEnabled = true
2015-03-06 15:51:43,508 INFO  namenode.FSNamesystem (FSNamesystem.java:<init>(822)) - HA Enabled: false
2015-03-06 15:51:43,511 INFO  namenode.FSNamesystem (FSNamesystem.java:<init>(859)) - Append Enabled: true
2015-03-06 15:51:43,577 INFO  util.GSet (LightWeightGSet.java:computeCapacity(354)) - Computing capacity for map INodeMap
2015-03-06 15:51:43,578 INFO  util.GSet (LightWeightGSet.java:computeCapacity(355)) - VM type       = 64-bit
2015-03-06 15:51:43,578 INFO  util.GSet (LightWeightGSet.java:computeCapacity(356)) - 1.0% max memory 910.3 MB = 9.1 MB
2015-03-06 15:51:43,579 INFO  util.GSet (LightWeightGSet.java:computeCapacity(361)) - capacity      = 2^20 = 1048576 entries
2015-03-06 15:51:43,582 INFO  namenode.NameNode (FSDirectory.java:<init>(234)) - Caching file names occuring more than 10 times
2015-03-06 15:51:43,594 INFO  util.GSet (LightWeightGSet.java:computeCapacity(354)) - Computing capacity for map cachedBlocks
2015-03-06 15:51:43,595 INFO  util.GSet (LightWeightGSet.java:computeCapacity(355)) - VM type       = 64-bit
2015-03-06 15:51:43,595 INFO  util.GSet (LightWeightGSet.java:computeCapacity(356)) - 0.25% max memory 910.3 MB = 2.3 MB
2015-03-06 15:51:43,595 INFO  util.GSet (LightWeightGSet.java:computeCapacity(361)) - capacity      = 2^18 = 262144 entries
2015-03-06 15:51:43,598 INFO  namenode.FSNamesystem (FSNamesystem.java:<init>(5663)) - dfs.namenode.safemode.threshold-pct = 0.9990000128746033
2015-03-06 15:51:43,598 INFO  namenode.FSNamesystem (FSNamesystem.java:<init>(5664)) - dfs.namenode.safemode.min.datanodes = 0
2015-03-06 15:51:43,599 INFO  namenode.FSNamesystem (FSNamesystem.java:<init>(5665)) - dfs.namenode.safemode.extension     = 0
2015-03-06 15:51:43,601 INFO  namenode.FSNamesystem (FSNamesystem.java:initRetryCache(957)) - Retry cache on namenode is enabled
2015-03-06 15:51:43,601 INFO  namenode.FSNamesystem (FSNamesystem.java:initRetryCache(965)) - Retry cache will use 0.03 of total heap and retry cache entry expiry time is 600000 millis
2015-03-06 15:51:43,604 INFO  util.GSet (LightWeightGSet.java:computeCapacity(354)) - Computing capacity for map NameNodeRetryCache
2015-03-06 15:51:43,604 INFO  util.GSet (LightWeightGSet.java:computeCapacity(355)) - VM type       = 64-bit
2015-03-06 15:51:43,605 INFO  util.GSet (LightWeightGSet.java:computeCapacity(356)) - 0.029999999329447746% max memory 910.3 MB = 279.6 KB
2015-03-06 15:51:43,605 INFO  util.GSet (LightWeightGSet.java:computeCapacity(361)) - capacity      = 2^15 = 32768 entries
2015-03-06 15:51:43,612 INFO  namenode.NNConf (NNConf.java:<init>(62)) - ACLs enabled? false
2015-03-06 15:51:43,612 INFO  namenode.NNConf (NNConf.java:<init>(66)) - XAttrs enabled? true
2015-03-06 15:51:43,612 INFO  namenode.NNConf (NNConf.java:<init>(74)) - Maximum size of an xattr: 16384
2015-03-06 15:51:48,754 INFO  namenode.FSImage (FSImage.java:format(145)) - Allocated new BlockPoolId: BP-1951995440-192.168.1.29-1425678708632
2015-03-06 15:51:49,225 INFO  common.Storage (NNStorage.java:format(552)) - Storage directory /mnt/common/ahaider/hadoop-2.6.0-src/hadoop-hdfs-project/hadoop-hdfs/target/test/data/dfs/name1 has been successfully formatted.
2015-03-06 15:51:49,461 INFO  common.Storage (NNStorage.java:format(552)) - Storage directory /mnt/common/ahaider/hadoop-2.6.0-src/hadoop-hdfs-project/hadoop-hdfs/target/test/data/dfs/name2 has been successfully formatted.
2015-03-06 15:51:50,102 INFO  namenode.NNStorageRetentionManager (NNStorageRetentionManager.java:getImageTxIdToRetain(203)) - Going to retain 1 images with txid >= 0
2015-03-06 15:51:50,106 INFO  namenode.NameNode (NameNode.java:createNameNode(1367)) - createNameNode []
2015-03-06 15:51:50,136 WARN  impl.MetricsConfig (MetricsConfig.java:loadFirst(124)) - Cannot locate configuration: tried hadoop-metrics2-namenode.properties,hadoop-metrics2.properties
2015-03-06 15:51:50,195 INFO  impl.MetricsSystemImpl (MetricsSystemImpl.java:startTimer(376)) - Scheduled snapshot period at 10 second(s).
2015-03-06 15:51:50,196 INFO  impl.MetricsSystemImpl (MetricsSystemImpl.java:start(191)) - NameNode metrics system started
2015-03-06 15:51:50,198 INFO  namenode.NameNode (NameNode.java:setClientNamenodeAddress(349)) - fs.defaultFS is hdfs://127.0.0.1:0
2015-03-06 15:51:50,238 INFO  hdfs.DFSUtil (DFSUtil.java:httpServerTemplateForNNAndJN(1694)) - Starting Web-server for hdfs at: http://localhost:0
2015-03-06 15:51:50,297 INFO  mortbay.log (Slf4jLog.java:info(67)) - Logging to org.slf4j.impl.Log4jLoggerAdapter(org.mortbay.log) via org.mortbay.log.Slf4jLog
2015-03-06 15:51:50,303 INFO  http.HttpRequestLog (HttpRequestLog.java:getRequestLog(80)) - Http request log for http.requests.namenode is not defined
2015-03-06 15:51:50,317 INFO  http.HttpServer2 (HttpServer2.java:addGlobalFilter(699)) - Added global filter 'safety' (class=org.apache.hadoop.http.HttpServer2$QuotingInputFilter)
2015-03-06 15:51:50,319 INFO  http.HttpServer2 (HttpServer2.java:addFilter(677)) - Added filter static_user_filter (class=org.apache.hadoop.http.lib.StaticUserWebFilter$StaticUserFilter) to context hdfs
2015-03-06 15:51:50,320 INFO  http.HttpServer2 (HttpServer2.java:addFilter(684)) - Added filter static_user_filter (class=org.apache.hadoop.http.lib.StaticUserWebFilter$StaticUserFilter) to context static
2015-03-06 15:51:50,320 INFO  http.HttpServer2 (HttpServer2.java:addFilter(684)) - Added filter static_user_filter (class=org.apache.hadoop.http.lib.StaticUserWebFilter$StaticUserFilter) to context logs
2015-03-06 15:51:50,347 INFO  http.HttpServer2 (NameNodeHttpServer.java:initWebHdfs(86)) - Added filter 'org.apache.hadoop.hdfs.web.AuthFilter' (class=org.apache.hadoop.hdfs.web.AuthFilter)
2015-03-06 15:51:50,349 INFO  http.HttpServer2 (HttpServer2.java:addJerseyResourcePackage(603)) - addJerseyResourcePackage: packageName=org.apache.hadoop.hdfs.server.namenode.web.resources;org.apache.hadoop.hdfs.web.resources, pathSpec=/webhdfs/v1/*
2015-03-06 15:51:50,373 INFO  http.HttpServer2 (HttpServer2.java:openListeners(887)) - Jetty bound to port 42958
2015-03-06 15:51:50,374 INFO  mortbay.log (Slf4jLog.java:info(67)) - jetty-6.1.26
2015-03-06 15:51:50,545 INFO  mortbay.log (Slf4jLog.java:info(67)) - Started HttpServer2$SelectChannelConnectorWithSafeStartup@localhost:42958
2015-03-06 15:51:50,558 INFO  namenode.FSNamesystem (FSNamesystem.java:<init>(774)) - No KeyProvider found.
2015-03-06 15:51:50,558 INFO  namenode.FSNamesystem (FSNamesystem.java:<init>(786)) - fsLock is fair:true
2015-03-06 15:51:50,560 INFO  blockmanagement.DatanodeManager (DatanodeManager.java:<init>(232)) - dfs.block.invalidate.limit=1000
2015-03-06 15:51:50,560 INFO  blockmanagement.DatanodeManager (DatanodeManager.java:<init>(238)) - dfs.namenode.datanode.registration.ip-hostname-check=true
2015-03-06 15:51:50,561 INFO  blockmanagement.BlockManager (InvalidateBlocks.java:printBlockDeletionTime(71)) - dfs.namenode.startup.delay.block.deletion.sec is set to 000:00:00:00.000
2015-03-06 15:51:50,561 INFO  blockmanagement.BlockManager (InvalidateBlocks.java:printBlockDeletionTime(76)) - The block deletion will start around 2015 Mar 06 15:51:50
2015-03-06 15:51:50,561 INFO  util.GSet (LightWeightGSet.java:computeCapacity(354)) - Computing capacity for map BlocksMap
2015-03-06 15:51:50,562 INFO  util.GSet (LightWeightGSet.java:computeCapacity(355)) - VM type       = 64-bit
2015-03-06 15:51:50,562 INFO  util.GSet (LightWeightGSet.java:computeCapacity(356)) - 2.0% max memory 910.3 MB = 18.2 MB
2015-03-06 15:51:50,562 INFO  util.GSet (LightWeightGSet.java:computeCapacity(361)) - capacity      = 2^21 = 2097152 entries
2015-03-06 15:51:50,577 INFO  blockmanagement.BlockManager (BlockManager.java:createBlockTokenSecretManager(364)) - dfs.block.access.token.enable=false
2015-03-06 15:51:50,577 INFO  blockmanagement.BlockManager (BlockManager.java:<init>(349)) - defaultReplication         = 1
2015-03-06 15:51:50,578 INFO  blockmanagement.BlockManager (BlockManager.java:<init>(350)) - maxReplication             = 512
2015-03-06 15:51:50,578 INFO  blockmanagement.BlockManager (BlockManager.java:<init>(351)) - minReplication             = 1
2015-03-06 15:51:50,578 INFO  blockmanagement.BlockManager (BlockManager.java:<init>(352)) - maxReplicationStreams      = 2
2015-03-06 15:51:50,578 INFO  blockmanagement.BlockManager (BlockManager.java:<init>(353)) - shouldCheckForEnoughRacks  = false
2015-03-06 15:51:50,579 INFO  blockmanagement.BlockManager (BlockManager.java:<init>(354)) - replicationRecheckInterval = 3000
2015-03-06 15:51:50,579 INFO  blockmanagement.BlockManager (BlockManager.java:<init>(355)) - encryptDataTransfer        = false
2015-03-06 15:51:50,579 INFO  blockmanagement.BlockManager (BlockManager.java:<init>(356)) - maxNumBlocksToLog          = 1000
2015-03-06 15:51:50,580 INFO  namenode.FSNamesystem (FSNamesystem.java:<init>(809)) - fsOwner             = ahaider (auth:SIMPLE)
2015-03-06 15:51:50,580 INFO  namenode.FSNamesystem (FSNamesystem.java:<init>(810)) - supergroup          = supergroup
2015-03-06 15:51:50,580 INFO  namenode.FSNamesystem (FSNamesystem.java:<init>(811)) - isPermissionEnabled = true
2015-03-06 15:51:50,581 INFO  namenode.FSNamesystem (FSNamesystem.java:<init>(822)) - HA Enabled: false
2015-03-06 15:51:50,581 INFO  namenode.FSNamesystem (FSNamesystem.java:<init>(859)) - Append Enabled: true
2015-03-06 15:51:50,582 INFO  util.GSet (LightWeightGSet.java:computeCapacity(354)) - Computing capacity for map INodeMap
2015-03-06 15:51:50,582 INFO  util.GSet (LightWeightGSet.java:computeCapacity(355)) - VM type       = 64-bit
2015-03-06 15:51:50,583 INFO  util.GSet (LightWeightGSet.java:computeCapacity(356)) - 1.0% max memory 910.3 MB = 9.1 MB
2015-03-06 15:51:50,583 INFO  util.GSet (LightWeightGSet.java:computeCapacity(361)) - capacity      = 2^20 = 1048576 entries
2015-03-06 15:51:50,674 INFO  namenode.NameNode (FSDirectory.java:<init>(234)) - Caching file names occuring more than 10 times
2015-03-06 15:51:50,680 INFO  util.GSet (LightWeightGSet.java:computeCapacity(354)) - Computing capacity for map cachedBlocks
2015-03-06 15:51:50,682 INFO  util.GSet (LightWeightGSet.java:computeCapacity(355)) - VM type       = 64-bit
2015-03-06 15:51:50,682 INFO  util.GSet (LightWeightGSet.java:computeCapacity(356)) - 0.25% max memory 910.3 MB = 2.3 MB
2015-03-06 15:51:50,683 INFO  util.GSet (LightWeightGSet.java:computeCapacity(361)) - capacity      = 2^18 = 262144 entries
2015-03-06 15:51:50,684 INFO  namenode.FSNamesystem (FSNamesystem.java:<init>(5663)) - dfs.namenode.safemode.threshold-pct = 0.9990000128746033
2015-03-06 15:51:50,686 INFO  namenode.FSNamesystem (FSNamesystem.java:<init>(5664)) - dfs.namenode.safemode.min.datanodes = 0
2015-03-06 15:51:50,686 INFO  namenode.FSNamesystem (FSNamesystem.java:<init>(5665)) - dfs.namenode.safemode.extension     = 0
2015-03-06 15:51:50,687 INFO  namenode.FSNamesystem (FSNamesystem.java:initRetryCache(957)) - Retry cache on namenode is enabled
2015-03-06 15:51:50,687 INFO  namenode.FSNamesystem (FSNamesystem.java:initRetryCache(965)) - Retry cache will use 0.03 of total heap and retry cache entry expiry time is 600000 millis
2015-03-06 15:51:50,687 INFO  util.GSet (LightWeightGSet.java:computeCapacity(354)) - Computing capacity for map NameNodeRetryCache
2015-03-06 15:51:50,687 INFO  util.GSet (LightWeightGSet.java:computeCapacity(355)) - VM type       = 64-bit
2015-03-06 15:51:50,688 INFO  util.GSet (LightWeightGSet.java:computeCapacity(356)) - 0.029999999329447746% max memory 910.3 MB = 279.6 KB
2015-03-06 15:51:50,688 INFO  util.GSet (LightWeightGSet.java:computeCapacity(361)) - capacity      = 2^15 = 32768 entries
2015-03-06 15:51:50,691 INFO  namenode.NNConf (NNConf.java:<init>(62)) - ACLs enabled? false
2015-03-06 15:51:50,691 INFO  namenode.NNConf (NNConf.java:<init>(66)) - XAttrs enabled? true
2015-03-06 15:51:50,691 INFO  namenode.NNConf (NNConf.java:<init>(74)) - Maximum size of an xattr: 16384
2015-03-06 15:51:50,758 INFO  common.Storage (Storage.java:tryLock(715)) - Lock on /mnt/common/ahaider/hadoop-2.6.0-src/hadoop-hdfs-project/hadoop-hdfs/target/test/data/dfs/name1/in_use.lock acquired by nodename 9331@hec-08.cs.iit.edu
2015-03-06 15:51:50,847 INFO  common.Storage (Storage.java:tryLock(715)) - Lock on /mnt/common/ahaider/hadoop-2.6.0-src/hadoop-hdfs-project/hadoop-hdfs/target/test/data/dfs/name2/in_use.lock acquired by nodename 9331@hec-08.cs.iit.edu
2015-03-06 15:51:50,853 INFO  namenode.FileJournalManager (FileJournalManager.java:recoverUnfinalizedSegments(362)) - Recovering unfinalized segments in /mnt/common/ahaider/hadoop-2.6.0-src/hadoop-hdfs-project/hadoop-hdfs/target/test/data/dfs/name1/current
2015-03-06 15:51:50,853 INFO  namenode.FileJournalManager (FileJournalManager.java:recoverUnfinalizedSegments(362)) - Recovering unfinalized segments in /mnt/common/ahaider/hadoop-2.6.0-src/hadoop-hdfs-project/hadoop-hdfs/target/test/data/dfs/name2/current
2015-03-06 15:51:50,854 INFO  namenode.FSImage (FSImage.java:loadFSImage(656)) - No edit log streams selected.
2015-03-06 15:51:50,885 INFO  namenode.FSImageFormatPBINode (FSImageFormatPBINode.java:loadINodeSection(214)) - Loading 1 INodes.
2015-03-06 15:51:50,909 INFO  namenode.FSImageFormatProtobuf (FSImageFormatProtobuf.java:load(182)) - Loaded FSImage in 0 seconds.
2015-03-06 15:51:50,910 INFO  namenode.FSImage (FSImage.java:loadFSImage(937)) - Loaded image for txid 0 from /mnt/common/ahaider/hadoop-2.6.0-src/hadoop-hdfs-project/hadoop-hdfs/target/test/data/dfs/name1/current/fsimage_0000000000000000000
2015-03-06 15:51:50,923 INFO  namenode.FSNamesystem (FSNamesystem.java:loadFSImage(1027)) - Need to save fs image? false (staleImage=false, haEnabled=false, isRollingUpgrade=false)
2015-03-06 15:51:50,925 INFO  namenode.FSEditLog (FSEditLog.java:startLogSegment(1173)) - Starting log segment at 1
2015-03-06 15:51:51,482 INFO  namenode.NameCache (NameCache.java:initialized(143)) - initialized with 0 entries 0 lookups
2015-03-06 15:51:51,483 INFO  namenode.FSNamesystem (FSNamesystem.java:loadFromDisk(746)) - Finished loading FSImage in 791 msecs
2015-03-06 15:51:52,157 INFO  namenode.NameNode (NameNodeRpcServer.java:<init>(329)) - RPC server is binding to localhost:0
2015-03-06 15:51:52,180 INFO  ipc.CallQueueManager (CallQueueManager.java:<init>(53)) - Using callQueue class java.util.concurrent.LinkedBlockingQueue
2015-03-06 15:51:52,230 INFO  ipc.Server (Server.java:run(605)) - Starting Socket Reader #1 for port 43978
2015-03-06 15:51:52,320 INFO  namenode.NameNode (NameNode.java:initialize(603)) - Clients are to use localhost:43978 to access this namenode/service.
2015-03-06 15:51:52,327 INFO  namenode.FSNamesystem (FSNamesystem.java:registerMBean(6642)) - Registered FSNamesystemState MBean
2015-03-06 15:51:52,475 INFO  namenode.FSNamesystem (FSNamesystem.java:getCompleteBlocksTotal(6253)) - Number of blocks under construction: 0
2015-03-06 15:51:52,476 INFO  namenode.FSNamesystem (FSNamesystem.java:getCompleteBlocksTotal(6253)) - Number of blocks under construction: 0
2015-03-06 15:51:52,476 INFO  namenode.FSNamesystem (FSNamesystem.java:initializeReplQueues(1219)) - initializing replication queues
2015-03-06 15:51:52,476 INFO  hdfs.StateChange (FSNamesystem.java:leave(5737)) - STATE* Leaving safe mode after 1 secs
2015-03-06 15:51:52,477 INFO  hdfs.StateChange (FSNamesystem.java:leave(5748)) - STATE* Network topology has 0 racks and 0 datanodes
2015-03-06 15:51:52,477 INFO  hdfs.StateChange (FSNamesystem.java:leave(5751)) - STATE* UnderReplicatedBlocks has 0 blocks
2015-03-06 15:51:52,490 INFO  blockmanagement.BlockManager (BlockManager.java:processMisReplicatesAsync(2612)) - Total number of blocks            = 0
2015-03-06 15:51:52,491 INFO  blockmanagement.BlockManager (BlockManager.java:processMisReplicatesAsync(2613)) - Number of invalid blocks          = 0
2015-03-06 15:51:52,491 INFO  blockmanagement.BlockManager (BlockManager.java:processMisReplicatesAsync(2614)) - Number of under-replicated blocks = 0
2015-03-06 15:51:52,491 INFO  blockmanagement.BlockManager (BlockManager.java:processMisReplicatesAsync(2615)) - Number of  over-replicated blocks = 0
2015-03-06 15:51:52,491 INFO  blockmanagement.BlockManager (BlockManager.java:processMisReplicatesAsync(2617)) - Number of blocks being written    = 0
2015-03-06 15:51:52,492 INFO  hdfs.StateChange (BlockManager.java:processMisReplicatesAsync(2618)) - STATE* Replication Queue initialization scan for invalid, over- and under-replicated blocks completed in 16 msec
2015-03-06 15:51:52,530 INFO  ipc.Server (Server.java:run(827)) - IPC Server Responder: starting
2015-03-06 15:51:52,531 INFO  ipc.Server (Server.java:run(674)) - IPC Server listener on 43978: starting
2015-03-06 15:51:52,547 INFO  namenode.NameNode (NameNode.java:startCommonServices(646)) - NameNode RPC up at: localhost/127.0.0.1:43978
2015-03-06 15:51:52,548 INFO  namenode.FSNamesystem (FSNamesystem.java:startActiveServices(1140)) - Starting services required for active state
2015-03-06 15:51:52,558 INFO  blockmanagement.CacheReplicationMonitor (CacheReplicationMonitor.java:run(160)) - Starting CacheReplicationMonitor with interval 30000 milliseconds
2015-03-06 15:51:52,558 INFO  blockmanagement.CacheReplicationMonitor (CacheReplicationMonitor.java:run(178)) - Rescanning after 7949859936 milliseconds
2015-03-06 15:51:52,569 INFO  blockmanagement.CacheReplicationMonitor (CacheReplicationMonitor.java:run(201)) - Scanned 0 directive(s) and 0 block(s) in 10 millisecond(s).
2015-03-06 15:51:54,413 INFO  hdfs.MiniDFSCluster (MiniDFSCluster.java:startDataNodes(1407)) - Starting DataNode 0 with dfs.datanode.data.dir: [DISK]file:/mnt/common/ahaider/hadoop-2.6.0-src/hadoop-hdfs-project/hadoop-hdfs/target/test/data/dfs/data/data1,[DISK]file:/mnt/common/ahaider/hadoop-2.6.0-src/hadoop-hdfs-project/hadoop-hdfs/target/test/data/dfs/data/data2
2015-03-06 15:51:55,115 INFO  impl.MetricsSystemImpl (MetricsSystemImpl.java:init(158)) - DataNode metrics system started (again)
2015-03-06 15:51:55,119 INFO  datanode.DataNode (DataNode.java:<init>(414)) - Configured hostname is 127.0.0.1
2015-03-06 15:51:55,133 INFO  datanode.DataNode (DataNode.java:startDataNode(1049)) - Starting DataNode with maxLockedMemory = 0
2015-03-06 15:51:55,156 INFO  datanode.DataNode (DataNode.java:initDataXceiver(848)) - Opened streaming server at /127.0.0.1:37719
2015-03-06 15:51:55,165 INFO  datanode.DataNode (DataXceiverServer.java:<init>(76)) - Balancing bandwith is 1048576 bytes/s
2015-03-06 15:51:55,166 INFO  datanode.DataNode (DataXceiverServer.java:<init>(77)) - Number threads for balancing is 5
2015-03-06 15:51:55,175 INFO  http.HttpRequestLog (HttpRequestLog.java:getRequestLog(80)) - Http request log for http.requests.datanode is not defined
2015-03-06 15:51:55,178 INFO  http.HttpServer2 (HttpServer2.java:addGlobalFilter(699)) - Added global filter 'safety' (class=org.apache.hadoop.http.HttpServer2$QuotingInputFilter)
2015-03-06 15:51:55,181 INFO  http.HttpServer2 (HttpServer2.java:addFilter(677)) - Added filter static_user_filter (class=org.apache.hadoop.http.lib.StaticUserWebFilter$StaticUserFilter) to context datanode
2015-03-06 15:51:55,182 INFO  http.HttpServer2 (HttpServer2.java:addFilter(684)) - Added filter static_user_filter (class=org.apache.hadoop.http.lib.StaticUserWebFilter$StaticUserFilter) to context logs
2015-03-06 15:51:55,183 INFO  http.HttpServer2 (HttpServer2.java:addFilter(684)) - Added filter static_user_filter (class=org.apache.hadoop.http.lib.StaticUserWebFilter$StaticUserFilter) to context static
2015-03-06 15:51:55,196 INFO  http.HttpServer2 (HttpServer2.java:addJerseyResourcePackage(603)) - addJerseyResourcePackage: packageName=org.apache.hadoop.hdfs.server.datanode.web.resources;org.apache.hadoop.hdfs.web.resources, pathSpec=/webhdfs/v1/*
2015-03-06 15:51:55,197 INFO  http.HttpServer2 (HttpServer2.java:openListeners(887)) - Jetty bound to port 51654
2015-03-06 15:51:55,198 INFO  mortbay.log (Slf4jLog.java:info(67)) - jetty-6.1.26
2015-03-06 15:51:55,280 INFO  mortbay.log (Slf4jLog.java:info(67)) - Started HttpServer2$SelectChannelConnectorWithSafeStartup@localhost:51654
2015-03-06 15:51:55,286 INFO  datanode.DataNode (DataNode.java:startDataNode(1066)) - dnUserName = ahaider
2015-03-06 15:51:55,286 INFO  datanode.DataNode (DataNode.java:startDataNode(1067)) - supergroup = supergroup
2015-03-06 15:51:55,312 INFO  ipc.CallQueueManager (CallQueueManager.java:<init>(53)) - Using callQueue class java.util.concurrent.LinkedBlockingQueue
2015-03-06 15:51:55,313 INFO  ipc.Server (Server.java:run(605)) - Starting Socket Reader #1 for port 58760
2015-03-06 15:51:55,326 INFO  datanode.DataNode (DataNode.java:initIpcServer(723)) - Opened IPC server at /127.0.0.1:58760
2015-03-06 15:51:55,362 INFO  datanode.DataNode (BlockPoolManager.java:refreshNamenodes(152)) - Refresh request received for nameservices: null
2015-03-06 15:51:55,370 INFO  datanode.DataNode (BlockPoolManager.java:doRefreshNamenodes(197)) - Starting BPOfferServices for nameservices: <default>
2015-03-06 15:51:55,405 INFO  datanode.DataNode (BPServiceActor.java:run(821)) - Block pool <registering> (Datanode Uuid unassigned) service to localhost/127.0.0.1:43978 starting to offer service
2015-03-06 15:51:55,447 INFO  ipc.Server (Server.java:run(827)) - IPC Server Responder: starting
2015-03-06 15:51:55,447 INFO  ipc.Server (Server.java:run(674)) - IPC Server listener on 58760: starting
2015-03-06 15:51:56,816 INFO  common.Storage (DataStorage.java:recoverTransitionRead(399)) - DataNode version: -56 and NameNode layout version: -60
2015-03-06 15:51:56,925 INFO  common.Storage (Storage.java:tryLock(715)) - Lock on /mnt/common/ahaider/hadoop-2.6.0-src/hadoop-hdfs-project/hadoop-hdfs/target/test/data/dfs/data/data1/in_use.lock acquired by nodename 9331@hec-08.cs.iit.edu
2015-03-06 15:51:56,930 INFO  common.Storage (DataStorage.java:addStorageLocations(281)) - Storage directory /mnt/common/ahaider/hadoop-2.6.0-src/hadoop-hdfs-project/hadoop-hdfs/target/test/data/dfs/data/data1 is not formatted for BP-1951995440-192.168.1.29-1425678708632
2015-03-06 15:51:56,931 INFO  common.Storage (DataStorage.java:addStorageLocations(283)) - Formatting ...
2015-03-06 15:51:57,185 INFO  hdfs.MiniDFSCluster (MiniDFSCluster.java:shouldWait(2230)) - dnInfo.length != numDataNodes
2015-03-06 15:51:57,186 INFO  hdfs.MiniDFSCluster (MiniDFSCluster.java:waitActive(2182)) - Waiting for cluster to become active
2015-03-06 15:51:57,232 INFO  common.Storage (Storage.java:tryLock(715)) - Lock on /mnt/common/ahaider/hadoop-2.6.0-src/hadoop-hdfs-project/hadoop-hdfs/target/test/data/dfs/data/data2/in_use.lock acquired by nodename 9331@hec-08.cs.iit.edu
2015-03-06 15:51:57,234 INFO  common.Storage (DataStorage.java:addStorageLocations(281)) - Storage directory /mnt/common/ahaider/hadoop-2.6.0-src/hadoop-hdfs-project/hadoop-hdfs/target/test/data/dfs/data/data2 is not formatted for BP-1951995440-192.168.1.29-1425678708632
2015-03-06 15:51:57,234 INFO  common.Storage (DataStorage.java:addStorageLocations(283)) - Formatting ...
2015-03-06 15:51:57,290 INFO  hdfs.MiniDFSCluster (MiniDFSCluster.java:shouldWait(2230)) - dnInfo.length != numDataNodes
2015-03-06 15:51:57,291 INFO  hdfs.MiniDFSCluster (MiniDFSCluster.java:waitActive(2182)) - Waiting for cluster to become active
2015-03-06 15:51:57,394 INFO  hdfs.MiniDFSCluster (MiniDFSCluster.java:shouldWait(2230)) - dnInfo.length != numDataNodes
2015-03-06 15:51:57,395 INFO  hdfs.MiniDFSCluster (MiniDFSCluster.java:waitActive(2182)) - Waiting for cluster to become active
2015-03-06 15:51:57,498 INFO  hdfs.MiniDFSCluster (MiniDFSCluster.java:shouldWait(2230)) - dnInfo.length != numDataNodes
2015-03-06 15:51:57,499 INFO  hdfs.MiniDFSCluster (MiniDFSCluster.java:waitActive(2182)) - Waiting for cluster to become active
2015-03-06 15:51:57,601 INFO  hdfs.MiniDFSCluster (MiniDFSCluster.java:shouldWait(2230)) - dnInfo.length != numDataNodes
2015-03-06 15:51:57,602 INFO  hdfs.MiniDFSCluster (MiniDFSCluster.java:waitActive(2182)) - Waiting for cluster to become active
2015-03-06 15:51:57,705 INFO  hdfs.MiniDFSCluster (MiniDFSCluster.java:shouldWait(2230)) - dnInfo.length != numDataNodes
2015-03-06 15:51:57,706 INFO  hdfs.MiniDFSCluster (MiniDFSCluster.java:waitActive(2182)) - Waiting for cluster to become active
2015-03-06 15:51:57,809 INFO  hdfs.MiniDFSCluster (MiniDFSCluster.java:shouldWait(2230)) - dnInfo.length != numDataNodes
2015-03-06 15:51:57,810 INFO  hdfs.MiniDFSCluster (MiniDFSCluster.java:waitActive(2182)) - Waiting for cluster to become active
2015-03-06 15:51:57,922 INFO  hdfs.MiniDFSCluster (MiniDFSCluster.java:shouldWait(2230)) - dnInfo.length != numDataNodes
2015-03-06 15:51:57,924 INFO  hdfs.MiniDFSCluster (MiniDFSCluster.java:waitActive(2182)) - Waiting for cluster to become active
2015-03-06 15:51:58,027 INFO  hdfs.MiniDFSCluster (MiniDFSCluster.java:shouldWait(2230)) - dnInfo.length != numDataNodes
2015-03-06 15:51:58,028 INFO  hdfs.MiniDFSCluster (MiniDFSCluster.java:waitActive(2182)) - Waiting for cluster to become active
2015-03-06 15:51:58,132 INFO  hdfs.MiniDFSCluster (MiniDFSCluster.java:shouldWait(2230)) - dnInfo.length != numDataNodes
2015-03-06 15:51:58,133 INFO  hdfs.MiniDFSCluster (MiniDFSCluster.java:waitActive(2182)) - Waiting for cluster to become active
2015-03-06 15:51:58,193 INFO  common.Storage (BlockPoolSliceStorage.java:recoverTransitionRead(141)) - Analyzing storage directories for bpid BP-1951995440-192.168.1.29-1425678708632
2015-03-06 15:51:58,194 INFO  common.Storage (Storage.java:lock(675)) - Locking is disabled
2015-03-06 15:51:58,196 INFO  common.Storage (BlockPoolSliceStorage.java:recoverTransitionRead(172)) - Storage directory /mnt/common/ahaider/hadoop-2.6.0-src/hadoop-hdfs-project/hadoop-hdfs/target/test/data/dfs/data/data1/current/BP-1951995440-192.168.1.29-1425678708632 is not formatted.
2015-03-06 15:51:58,196 INFO  common.Storage (BlockPoolSliceStorage.java:recoverTransitionRead(173)) - Formatting ...
2015-03-06 15:51:58,197 INFO  common.Storage (BlockPoolSliceStorage.java:format(225)) - Formatting block pool BP-1951995440-192.168.1.29-1425678708632 directory /mnt/common/ahaider/hadoop-2.6.0-src/hadoop-hdfs-project/hadoop-hdfs/target/test/data/dfs/data/data1/current/BP-1951995440-192.168.1.29-1425678708632/current
2015-03-06 15:51:58,236 INFO  hdfs.MiniDFSCluster (MiniDFSCluster.java:shouldWait(2230)) - dnInfo.length != numDataNodes
2015-03-06 15:51:58,236 INFO  hdfs.MiniDFSCluster (MiniDFSCluster.java:waitActive(2182)) - Waiting for cluster to become active
2015-03-06 15:51:58,339 INFO  hdfs.MiniDFSCluster (MiniDFSCluster.java:shouldWait(2230)) - dnInfo.length != numDataNodes
2015-03-06 15:51:58,340 INFO  hdfs.MiniDFSCluster (MiniDFSCluster.java:waitActive(2182)) - Waiting for cluster to become active
2015-03-06 15:51:58,349 INFO  common.Storage (Storage.java:lock(675)) - Locking is disabled
2015-03-06 15:51:58,352 INFO  common.Storage (BlockPoolSliceStorage.java:recoverTransitionRead(172)) - Storage directory /mnt/common/ahaider/hadoop-2.6.0-src/hadoop-hdfs-project/hadoop-hdfs/target/test/data/dfs/data/data2/current/BP-1951995440-192.168.1.29-1425678708632 is not formatted.
2015-03-06 15:51:58,353 INFO  common.Storage (BlockPoolSliceStorage.java:recoverTransitionRead(173)) - Formatting ...
2015-03-06 15:51:58,356 INFO  common.Storage (BlockPoolSliceStorage.java:format(225)) - Formatting block pool BP-1951995440-192.168.1.29-1425678708632 directory /mnt/common/ahaider/hadoop-2.6.0-src/hadoop-hdfs-project/hadoop-hdfs/target/test/data/dfs/data/data2/current/BP-1951995440-192.168.1.29-1425678708632/current
2015-03-06 15:51:58,442 INFO  hdfs.MiniDFSCluster (MiniDFSCluster.java:shouldWait(2230)) - dnInfo.length != numDataNodes
2015-03-06 15:51:58,443 INFO  hdfs.MiniDFSCluster (MiniDFSCluster.java:waitActive(2182)) - Waiting for cluster to become active
2015-03-06 15:51:58,511 INFO  common.Storage (BlockPoolSliceStorage.java:doTransition(313)) - Restored 0 block files from trash.
2015-03-06 15:51:58,512 INFO  common.Storage (BlockPoolSliceStorage.java:doTransition(313)) - Restored 0 block files from trash.
2015-03-06 15:51:58,546 INFO  hdfs.MiniDFSCluster (MiniDFSCluster.java:shouldWait(2230)) - dnInfo.length != numDataNodes
2015-03-06 15:51:58,546 INFO  hdfs.MiniDFSCluster (MiniDFSCluster.java:waitActive(2182)) - Waiting for cluster to become active
2015-03-06 15:51:58,594 INFO  datanode.DataNode (DataNode.java:initStorage(1314)) - Setting up storage: nsid=776939631;bpid=BP-1951995440-192.168.1.29-1425678708632;lv=-56;nsInfo=lv=-60;cid=testClusterID;nsid=776939631;c=0;bpid=BP-1951995440-192.168.1.29-1425678708632;dnuuid=null
2015-03-06 15:51:58,651 INFO  hdfs.MiniDFSCluster (MiniDFSCluster.java:shouldWait(2230)) - dnInfo.length != numDataNodes
2015-03-06 15:51:58,652 INFO  hdfs.MiniDFSCluster (MiniDFSCluster.java:waitActive(2182)) - Waiting for cluster to become active
2015-03-06 15:51:58,733 INFO  datanode.DataNode (DataNode.java:checkDatanodeUuid(1142)) - Generated and persisted new Datanode UUID 846d21a7-d191-4430-9ead-60874f114ce5
2015-03-06 15:51:58,763 INFO  hdfs.MiniDFSCluster (MiniDFSCluster.java:shouldWait(2230)) - dnInfo.length != numDataNodes
2015-03-06 15:51:58,763 INFO  hdfs.MiniDFSCluster (MiniDFSCluster.java:waitActive(2182)) - Waiting for cluster to become active
2015-03-06 15:51:58,799 INFO  impl.FsDatasetImpl (FsVolumeList.java:addVolume(222)) - Added new volume: /mnt/common/ahaider/hadoop-2.6.0-src/hadoop-hdfs-project/hadoop-hdfs/target/test/data/dfs/data/data1/current
2015-03-06 15:51:58,801 INFO  impl.FsDatasetImpl (FsDatasetImpl.java:addVolume(317)) - Added volume - /mnt/common/ahaider/hadoop-2.6.0-src/hadoop-hdfs-project/hadoop-hdfs/target/test/data/dfs/data/data1/current, StorageType: DISK
2015-03-06 15:51:58,803 INFO  impl.FsDatasetImpl (FsVolumeList.java:addVolume(222)) - Added new volume: /mnt/common/ahaider/hadoop-2.6.0-src/hadoop-hdfs-project/hadoop-hdfs/target/test/data/dfs/data/data2/current
2015-03-06 15:51:58,803 INFO  impl.FsDatasetImpl (FsDatasetImpl.java:addVolume(317)) - Added volume - /mnt/common/ahaider/hadoop-2.6.0-src/hadoop-hdfs-project/hadoop-hdfs/target/test/data/dfs/data/data2/current, StorageType: DISK
2015-03-06 15:51:58,851 INFO  impl.FsDatasetImpl (FsDatasetImpl.java:registerMBean(1804)) - Registered FSDatasetState MBean
2015-03-06 15:51:58,861 INFO  datanode.DirectoryScanner (DirectoryScanner.java:start(330)) - Periodic Directory Tree Verification scan starting at 1425682002861 with interval 21600000
2015-03-06 15:51:58,865 INFO  impl.FsDatasetImpl (FsDatasetImpl.java:addBlockPool(2207)) - Adding block pool BP-1951995440-192.168.1.29-1425678708632
2015-03-06 15:51:58,866 INFO  hdfs.MiniDFSCluster (MiniDFSCluster.java:shouldWait(2230)) - dnInfo.length != numDataNodes
2015-03-06 15:51:58,867 INFO  hdfs.MiniDFSCluster (MiniDFSCluster.java:waitActive(2182)) - Waiting for cluster to become active
2015-03-06 15:51:58,889 INFO  impl.FsDatasetImpl (FsVolumeList.java:run(254)) - Scanning block pool BP-1951995440-192.168.1.29-1425678708632 on volume /mnt/common/ahaider/hadoop-2.6.0-src/hadoop-hdfs-project/hadoop-hdfs/target/test/data/dfs/data/data1/current...
2015-03-06 15:51:58,889 INFO  impl.FsDatasetImpl (FsVolumeList.java:run(254)) - Scanning block pool BP-1951995440-192.168.1.29-1425678708632 on volume /mnt/common/ahaider/hadoop-2.6.0-src/hadoop-hdfs-project/hadoop-hdfs/target/test/data/dfs/data/data2/current...
2015-03-06 15:51:58,969 INFO  hdfs.MiniDFSCluster (MiniDFSCluster.java:shouldWait(2230)) - dnInfo.length != numDataNodes
2015-03-06 15:51:58,970 INFO  hdfs.MiniDFSCluster (MiniDFSCluster.java:waitActive(2182)) - Waiting for cluster to become active
2015-03-06 15:51:59,090 INFO  hdfs.MiniDFSCluster (MiniDFSCluster.java:shouldWait(2230)) - dnInfo.length != numDataNodes
2015-03-06 15:51:59,091 INFO  hdfs.MiniDFSCluster (MiniDFSCluster.java:waitActive(2182)) - Waiting for cluster to become active
2015-03-06 15:51:59,103 INFO  impl.FsDatasetImpl (FsVolumeList.java:run(259)) - Time taken to scan block pool BP-1951995440-192.168.1.29-1425678708632 on /mnt/common/ahaider/hadoop-2.6.0-src/hadoop-hdfs-project/hadoop-hdfs/target/test/data/dfs/data/data2/current: 213ms
2015-03-06 15:51:59,154 INFO  impl.FsDatasetImpl (FsVolumeList.java:run(259)) - Time taken to scan block pool BP-1951995440-192.168.1.29-1425678708632 on /mnt/common/ahaider/hadoop-2.6.0-src/hadoop-hdfs-project/hadoop-hdfs/target/test/data/dfs/data/data1/current: 264ms
2015-03-06 15:51:59,154 INFO  impl.FsDatasetImpl (FsVolumeList.java:addBlockPool(283)) - Total time to scan all replicas for block pool BP-1951995440-192.168.1.29-1425678708632: 289ms
2015-03-06 15:51:59,155 INFO  impl.FsDatasetImpl (FsVolumeList.java:run(134)) - Adding replicas to map for block pool BP-1951995440-192.168.1.29-1425678708632 on volume /mnt/common/ahaider/hadoop-2.6.0-src/hadoop-hdfs-project/hadoop-hdfs/target/test/data/dfs/data/data1/current...
2015-03-06 15:51:59,155 INFO  impl.FsDatasetImpl (FsVolumeList.java:run(134)) - Adding replicas to map for block pool BP-1951995440-192.168.1.29-1425678708632 on volume /mnt/common/ahaider/hadoop-2.6.0-src/hadoop-hdfs-project/hadoop-hdfs/target/test/data/dfs/data/data2/current...
2015-03-06 15:51:59,157 INFO  impl.FsDatasetImpl (FsVolumeList.java:run(139)) - Time to add replicas to map for block pool BP-1951995440-192.168.1.29-1425678708632 on volume /mnt/common/ahaider/hadoop-2.6.0-src/hadoop-hdfs-project/hadoop-hdfs/target/test/data/dfs/data/data1/current: 1ms
2015-03-06 15:51:59,157 INFO  impl.FsDatasetImpl (FsVolumeList.java:run(139)) - Time to add replicas to map for block pool BP-1951995440-192.168.1.29-1425678708632 on volume /mnt/common/ahaider/hadoop-2.6.0-src/hadoop-hdfs-project/hadoop-hdfs/target/test/data/dfs/data/data2/current: 1ms
2015-03-06 15:51:59,158 INFO  impl.FsDatasetImpl (FsVolumeList.java:getAllVolumesMap(162)) - Total time to add all replicas to map: 4ms
2015-03-06 15:51:59,161 INFO  datanode.DataNode (BPServiceActor.java:register(781)) - Block pool BP-1951995440-192.168.1.29-1425678708632 (Datanode Uuid null) service to localhost/127.0.0.1:43978 beginning handshake with NN
2015-03-06 15:51:59,172 INFO  hdfs.StateChange (DatanodeManager.java:registerDatanode(903)) - BLOCK* registerDatanode: from DatanodeRegistration(127.0.0.1, datanodeUuid=846d21a7-d191-4430-9ead-60874f114ce5, infoPort=51654, ipcPort=58760, storageInfo=lv=-56;cid=testClusterID;nsid=776939631;c=0) storage 846d21a7-d191-4430-9ead-60874f114ce5
2015-03-06 15:51:59,177 INFO  blockmanagement.DatanodeDescriptor (DatanodeDescriptor.java:updateHeartbeatState(388)) - Number of failed storage changes from 0 to 0
2015-03-06 15:51:59,178 INFO  net.NetworkTopology (NetworkTopology.java:add(419)) - Adding a new node: /default-rack/127.0.0.1:37719
2015-03-06 15:51:59,184 INFO  datanode.DataNode (BPServiceActor.java:register(794)) - Block pool Block pool BP-1951995440-192.168.1.29-1425678708632 (Datanode Uuid null) service to localhost/127.0.0.1:43978 successfully registered with NN
2015-03-06 15:51:59,184 INFO  datanode.DataNode (BPServiceActor.java:offerService(653)) - For namenode localhost/127.0.0.1:43978 using DELETEREPORT_INTERVAL of 300000 msec  BLOCKREPORT_INTERVAL of 21600000msec CACHEREPORT_INTERVAL of 10000msec Initial delay: 0msec; heartBeatInterval=3000
2015-03-06 15:51:59,202 INFO  blockmanagement.DatanodeDescriptor (DatanodeDescriptor.java:updateHeartbeatState(388)) - Number of failed storage changes from 0 to 0
2015-03-06 15:51:59,204 INFO  blockmanagement.DatanodeDescriptor (DatanodeDescriptor.java:updateStorage(743)) - Adding new storage ID DS-de938b71-4b4b-4f73-be60-9296d5f8fcac for DN 127.0.0.1:37719
2015-03-06 15:51:59,205 INFO  hdfs.MiniDFSCluster (MiniDFSCluster.java:shouldWait(2246)) - dn.getCapacity() == 0
2015-03-06 15:51:59,205 INFO  hdfs.MiniDFSCluster (MiniDFSCluster.java:waitActive(2182)) - Waiting for cluster to become active
2015-03-06 15:51:59,205 INFO  blockmanagement.DatanodeDescriptor (DatanodeDescriptor.java:updateStorage(743)) - Adding new storage ID DS-891c0bb9-42d1-4c3a-b92f-36050499f626 for DN 127.0.0.1:37719
2015-03-06 15:51:59,223 INFO  datanode.DataNode (BPOfferService.java:updateActorStatesFromHeartbeat(503)) - Namenode Block pool BP-1951995440-192.168.1.29-1425678708632 (Datanode Uuid 846d21a7-d191-4430-9ead-60874f114ce5) service to localhost/127.0.0.1:43978 trying to claim ACTIVE state with txid=1
2015-03-06 15:51:59,223 INFO  datanode.DataNode (BPOfferService.java:updateActorStatesFromHeartbeat(515)) - Acknowledging ACTIVE Namenode Block pool BP-1951995440-192.168.1.29-1425678708632 (Datanode Uuid 846d21a7-d191-4430-9ead-60874f114ce5) service to localhost/127.0.0.1:43978
2015-03-06 15:51:59,238 INFO  blockmanagement.BlockManager (BlockManager.java:processReport(1815)) - BLOCK* processReport: Received first block report from DatanodeStorage[DS-891c0bb9-42d1-4c3a-b92f-36050499f626,DISK,NORMAL] after starting up or becoming active. Its block contents are no longer considered stale
2015-03-06 15:51:59,239 INFO  BlockStateChange (BlockManager.java:processReport(1831)) - BLOCK* processReport: from storage DS-891c0bb9-42d1-4c3a-b92f-36050499f626 node DatanodeRegistration(127.0.0.1, datanodeUuid=846d21a7-d191-4430-9ead-60874f114ce5, infoPort=51654, ipcPort=58760, storageInfo=lv=-56;cid=testClusterID;nsid=776939631;c=0), blocks: 0, hasStaleStorages: true, processing time: 5 msecs
2015-03-06 15:51:59,240 INFO  blockmanagement.BlockManager (BlockManager.java:processReport(1815)) - BLOCK* processReport: Received first block report from DatanodeStorage[DS-de938b71-4b4b-4f73-be60-9296d5f8fcac,DISK,NORMAL] after starting up or becoming active. Its block contents are no longer considered stale
2015-03-06 15:51:59,240 INFO  BlockStateChange (BlockManager.java:processReport(1831)) - BLOCK* processReport: from storage DS-de938b71-4b4b-4f73-be60-9296d5f8fcac node DatanodeRegistration(127.0.0.1, datanodeUuid=846d21a7-d191-4430-9ead-60874f114ce5, infoPort=51654, ipcPort=58760, storageInfo=lv=-56;cid=testClusterID;nsid=776939631;c=0), blocks: 0, hasStaleStorages: false, processing time: 0 msecs
2015-03-06 15:51:59,280 INFO  datanode.DataNode (BPServiceActor.java:blockReport(514)) - Sent 1 blockreports 0 blocks total. Took 2 msec to generate and 54 msecs for RPC and NN processing.  Got back commands org.apache.hadoop.hdfs.server.protocol.FinalizeCommand@2726965a
2015-03-06 15:51:59,281 INFO  datanode.DataNode (BPOfferService.java:processCommandFromActive(689)) - Got finalize command for block pool BP-1951995440-192.168.1.29-1425678708632
2015-03-06 15:51:59,285 INFO  util.GSet (LightWeightGSet.java:computeCapacity(354)) - Computing capacity for map BlockMap
2015-03-06 15:51:59,285 INFO  util.GSet (LightWeightGSet.java:computeCapacity(355)) - VM type       = 64-bit
2015-03-06 15:51:59,285 INFO  util.GSet (LightWeightGSet.java:computeCapacity(356)) - 0.5% max memory 910.3 MB = 4.6 MB
2015-03-06 15:51:59,286 INFO  util.GSet (LightWeightGSet.java:computeCapacity(361)) - capacity      = 2^19 = 524288 entries
2015-03-06 15:51:59,288 INFO  datanode.BlockPoolSliceScanner (BlockPoolSliceScanner.java:<init>(190)) - Periodic Block Verification Scanner initialized with interval 504 hours for block pool BP-1951995440-192.168.1.29-1425678708632
2015-03-06 15:51:59,313 INFO  hdfs.MiniDFSCluster (MiniDFSCluster.java:waitActive(2213)) - Cluster is active
2015-03-06 15:51:59,323 INFO  datanode.DataBlockScanner (DataBlockScanner.java:addBlockPool(264)) - Added bpid=BP-1951995440-192.168.1.29-1425678708632 to blockPoolScannerMap, new size=1
2015-03-06 15:51:59,325 INFO  hdfs.MiniDFSCluster (MiniDFSCluster.java:waitActive(2213)) - Cluster is active
2015-03-06 15:51:59,381 INFO  FSNamesystem.audit (FSNamesystem.java:logAuditMessage(9332)) - allowed=true	ugi=ahaider (auth:SIMPLE)	ip=/127.0.0.1	cmd=create	src=/test.file	dst=null	perm=ahaider:supergroup:rw-r--r--	proto=rpc
2015-03-06 15:51:59,444 INFO  hdfs.StateChange (FSNamesystem.java:saveAllocatedBlock(3660)) - BLOCK* allocateBlock: /test.file. BP-1951995440-192.168.1.29-1425678708632 blk_1073741825_1001{blockUCState=UNDER_CONSTRUCTION, primaryNodeIndex=-1, replicas=[ReplicaUnderConstruction[[DISK]DS-de938b71-4b4b-4f73-be60-9296d5f8fcac:NORMAL:127.0.0.1:37719|RBW]]}
2015-03-06 15:51:59,539 INFO  datanode.DataNode (DataXceiver.java:writeBlock(593)) - Receiving BP-1951995440-192.168.1.29-1425678708632:blk_1073741825_1001 src: /127.0.0.1:57230 dest: /127.0.0.1:37719
2015-03-06 15:51:59,657 WARN  datanode.DataNode (BlockReceiver.java:<init>(251)) - Could not get file descriptor for outputstream of class class java.util.zip.GZIPOutputStream
2015-03-06 15:52:01,147 INFO  DataNode.clienttrace (BlockReceiver.java:finalizeBlock(1302)) - src: /127.0.0.1:57230, dest: /127.0.0.1:37719, bytes: 262144, op: HDFS_WRITE, cliID: DFSClient_NONMAPREDUCE_-2099248752_1, offset: 0, srvID: 846d21a7-d191-4430-9ead-60874f114ce5, blockid: BP-1951995440-192.168.1.29-1425678708632:blk_1073741825_1001, duration: 213199714
2015-03-06 15:52:01,148 INFO  datanode.DataNode (BlockReceiver.java:run(1282)) - PacketResponder: BP-1951995440-192.168.1.29-1425678708632:blk_1073741825_1001, type=LAST_IN_PIPELINE, downstreams=0:[] terminating
2015-03-06 15:52:01,180 INFO  namenode.FSNamesystem (FSNamesystem.java:checkFileProgress(3691)) - BLOCK* checkFileProgress: blk_1073741825_1001{blockUCState=COMMITTED, primaryNodeIndex=-1, replicas=[ReplicaUnderConstruction[[DISK]DS-de938b71-4b4b-4f73-be60-9296d5f8fcac:NORMAL:127.0.0.1:37719|RBW]]} has not reached minimal replication 1
2015-03-06 15:52:01,180 INFO  namenode.EditLogFileOutputStream (EditLogFileOutputStream.java:flushAndSync(200)) - Nothing to flush
2015-03-06 15:52:01,181 INFO  namenode.EditLogFileOutputStream (EditLogFileOutputStream.java:flushAndSync(200)) - Nothing to flush
2015-03-06 15:52:01,184 INFO  BlockStateChange (BlockManager.java:logAddStoredBlock(2473)) - BLOCK* addStoredBlock: blockMap updated: 127.0.0.1:37719 is added to blk_1073741825_1001{blockUCState=COMMITTED, primaryNodeIndex=-1, replicas=[ReplicaUnderConstruction[[DISK]DS-de938b71-4b4b-4f73-be60-9296d5f8fcac:NORMAL:127.0.0.1:37719|RBW]]} size 262144
2015-03-06 15:52:01,592 INFO  hdfs.StateChange (FSNamesystem.java:completeFile(3581)) - DIR* completeFile: /test.file is closed by DFSClient_NONMAPREDUCE_-2099248752_1
2015-03-06 15:52:01,607 INFO  FSNamesystem.audit (FSNamesystem.java:logAuditMessage(9332)) - allowed=true	ugi=ahaider (auth:SIMPLE)	ip=/127.0.0.1	cmd=open	src=/test.file	dst=null	perm=null	proto=rpc
2015-03-06 15:52:01,953 INFO  hdfs.DFSClient (BlockReaderTestUtil.java:readAndCheckEOS(151)) - So far read 0 - going to read more.
2015-03-06 15:52:01,999 TRACE hdfs.RemoteBlockReader2 (RemoteBlockReader2.java:read(140)) - Starting read #bf06fa17-ad6f-4b6f-aa90-12f66c8a3567 file /127.0.0.1:37719:1073741825 from datanode 127.0.0.1
2015-03-06 15:52:02,010 TRACE hdfs.RemoteBlockReader2 (RemoteBlockReader2.java:readNextPacket(193)) - DFSClient readNextPacket got header PacketHeader with packetLen=66048 header data: offsetInBlock: 0
seqno: 0
lastPacketInBlock: false
dataLen: 65536

]]></system-out>
  </testcase>
  <testcase name="testCompletePartialRead" classname="org.apache.hadoop.hdfs.TestClientBlockVerification" time="0.006">
    <error message="Checksum error: /127.0.0.1:37719:1073741825 at 0 exp: -1301207568 got: 1904987288" type="org.apache.hadoop.fs.ChecksumException">org.apache.hadoop.fs.ChecksumException: Checksum error: /127.0.0.1:37719:1073741825 at 0 exp: -1301207568 got: 1904987288
	at org.apache.hadoop.util.DataChecksum.verifyChunkedSums(DataChecksum.java:325)
	at org.apache.hadoop.hdfs.RemoteBlockReader2.readNextPacket(RemoteBlockReader2.java:216)
	at org.apache.hadoop.hdfs.RemoteBlockReader2.read(RemoteBlockReader2.java:146)
	at org.apache.hadoop.hdfs.BlockReaderTestUtil.readAndCheckEOS(BlockReaderTestUtil.java:152)
	at org.apache.hadoop.hdfs.TestClientBlockVerification.testCompletePartialRead(TestClientBlockVerification.java:93)
</error>
    <system-out><![CDATA[2015-03-06 15:52:02,026 INFO  hdfs.DFSClient (BlockReaderTestUtil.java:readAndCheckEOS(151)) - So far read 0 - going to read more.
2015-03-06 15:52:02,026 TRACE hdfs.RemoteBlockReader2 (RemoteBlockReader2.java:read(140)) - Starting read #7dc70c3c-4601-422b-99c6-3c95dc3cc039 file /127.0.0.1:37719:1073741825 from datanode 127.0.0.1
2015-03-06 15:52:02,027 TRACE hdfs.RemoteBlockReader2 (RemoteBlockReader2.java:readNextPacket(193)) - DFSClient readNextPacket got header PacketHeader with packetLen=66048 header data: offsetInBlock: 0
seqno: 0
lastPacketInBlock: false
dataLen: 65536

]]></system-out>
  </testcase>
  <testcase name="testUnalignedReads" classname="org.apache.hadoop.hdfs.TestClientBlockVerification" time="0.007">
    <error message="Checksum error: /127.0.0.1:37719:1073741825 at 0 exp: -1301207568 got: 1904987288" type="org.apache.hadoop.fs.ChecksumException">org.apache.hadoop.fs.ChecksumException: Checksum error: /127.0.0.1:37719:1073741825 at 0 exp: -1301207568 got: 1904987288
	at org.apache.hadoop.util.DataChecksum.verifyChunkedSums(DataChecksum.java:325)
	at org.apache.hadoop.hdfs.RemoteBlockReader2.readNextPacket(RemoteBlockReader2.java:216)
	at org.apache.hadoop.hdfs.RemoteBlockReader2.read(RemoteBlockReader2.java:146)
	at org.apache.hadoop.hdfs.BlockReaderTestUtil.readAndCheckEOS(BlockReaderTestUtil.java:152)
	at org.apache.hadoop.hdfs.TestClientBlockVerification.testUnalignedReads(TestClientBlockVerification.java:112)
</error>
    <system-out><![CDATA[2015-03-06 15:52:02,028 INFO  hdfs.DFSClient (TestClientBlockVerification.java:testUnalignedReads(108)) - Testing startOffset = 0 and  len=30
2015-03-06 15:52:02,033 INFO  hdfs.DFSClient (BlockReaderTestUtil.java:readAndCheckEOS(151)) - So far read 0 - going to read more.
2015-03-06 15:52:02,034 TRACE hdfs.RemoteBlockReader2 (RemoteBlockReader2.java:read(140)) - Starting read #922513f1-c893-4df5-ae91-51ad133ead09 file /127.0.0.1:37719:1073741825 from datanode 127.0.0.1
2015-03-06 15:52:02,034 TRACE hdfs.RemoteBlockReader2 (RemoteBlockReader2.java:readNextPacket(193)) - DFSClient readNextPacket got header PacketHeader with packetLen=516 header data: offsetInBlock: 0
seqno: 0
lastPacketInBlock: false
dataLen: 512

]]></system-out>
  </testcase>
  <testcase name="testBlockVerification" classname="org.apache.hadoop.hdfs.TestClientBlockVerification" time="0.008">
    <error message="Checksum error: /127.0.0.1:37719:1073741825 at 0 exp: -1301207568 got: 1904987288" type="org.apache.hadoop.fs.ChecksumException">org.apache.hadoop.fs.ChecksumException: Checksum error: /127.0.0.1:37719:1073741825 at 0 exp: -1301207568 got: 1904987288
	at org.apache.hadoop.util.DataChecksum.verifyChunkedSums(DataChecksum.java:325)
	at org.apache.hadoop.hdfs.RemoteBlockReader2.readNextPacket(RemoteBlockReader2.java:216)
	at org.apache.hadoop.hdfs.RemoteBlockReader2.read(RemoteBlockReader2.java:146)
	at org.apache.hadoop.hdfs.BlockReaderTestUtil.readAndCheckEOS(BlockReaderTestUtil.java:152)
	at org.apache.hadoop.hdfs.TestClientBlockVerification.testBlockVerification(TestClientBlockVerification.java:62)
</error>
    <system-out><![CDATA[2015-03-06 15:52:02,041 INFO  hdfs.DFSClient (BlockReaderTestUtil.java:readAndCheckEOS(151)) - So far read 0 - going to read more.
2015-03-06 15:52:02,042 TRACE hdfs.RemoteBlockReader2 (RemoteBlockReader2.java:read(140)) - Starting read #a4d98bbb-8759-4a04-8947-58664a61c182 file /127.0.0.1:37719:1073741825 from datanode 127.0.0.1
2015-03-06 15:52:02,042 TRACE hdfs.RemoteBlockReader2 (RemoteBlockReader2.java:readNextPacket(193)) - DFSClient readNextPacket got header PacketHeader with packetLen=66048 header data: offsetInBlock: 0
seqno: 0
lastPacketInBlock: false
dataLen: 65536

]]></system-out>
  </testcase>
</testsuite>